NUTS3;CODE
'CY000';'1010'
'CY000';'1011'
'CY000';'1015'
'CY000';'1016'
'CY000';'1017'
'CY000';'1020'
'CY000';'1021'
'CY000';'1022'
'CY000';'1025'
'CY000';'1026'
'CY000';'1027'
'CY000';'1028'
'CY000';'1035'
'CY000';'1036'
'CY000';'1037'
'CY000';'1040'
'CY000';'1041'
'CY000';'1042'
'CY000';'1045'
'CY000';'1046'
'CY000';'1047'
'CY000';'1048'
'CY000';'1049'
'CY000';'1055'
'CY000';'1056'
'CY000';'1057'
'CY000';'1060'
'CY000';'1061'
'CY000';'1066'
'CY000';'1070'
'CY000';'1071'
'CY000';'1075'
'CY000';'1076'
'CY000';'1077'
'CY000';'1080'
'CY000';'1081'
'CY000';'1082'
'CY000';'1085'
'CY000';'1086'
'CY000';'1087'
'CY000';'1090'
'CY000';'1095'
'CY000';'1096'
'CY000';'1097'
'CY000';'1100'
'CY000';'1101'
'CY000';'1102'
'CY000';'1105'
'CY000';'1106'
'CY000';'1107'
'CY000';'1120'
'CY000';'1130'
'CY000';'1140'
'CY000';'1150'
'CY000';'1160'
'CY000';'2000'
'CY000';'2001'
'CY000';'2002'
'CY000';'2003'
'CY000';'2006'
'CY000';'2007'
'CY000';'2008'
'CY000';'2011'
'CY000';'2012'
'CY000';'2013'
'CY000';'2014'
'CY000';'2015'
'CY000';'2018'
'CY000';'2019'
'CY000';'2020'
'CY000';'2021'
'CY000';'2023'
'CY000';'2024'
'CY000';'2025'
'CY000';'2027'
'CY000';'2028'
'CY000';'2029'
'CY000';'2030'
'CY000';'2031'
'CY000';'2032'
'CY000';'2033'
'CY000';'2034'
'CY000';'2035'
'CY000';'2036'
'CY000';'2037'
'CY000';'2038'
'CY000';'2039'
'CY000';'2040'
'CY000';'2042'
'CY000';'2043'
'CY000';'2044'
'CY000';'2045'
'CY000';'2046'
'CY000';'2047'
'CY000';'2048'
'CY000';'2049'
'CY000';'2050'
'CY000';'2051'
'CY000';'2052'
'CY000';'2054'
'CY000';'2055'
'CY000';'2057'
'CY000';'2058'
'CY000';'2059'
'CY000';'2060'
'CY000';'2062'
'CY000';'2063'
'CY000';'2064'
'CY000';'2066'
'CY000';'2100'
'CY000';'2101'
'CY000';'2102'
'CY000';'2103'
'CY000';'2107'
'CY000';'2108'
'CY000';'2109'
'CY000';'2112'
'CY000';'2113'
'CY000';'2114'
'CY000';'2115'
'CY000';'2116'
'CY000';'2120'
'CY000';'2121'
'CY000';'2122'
'CY000';'2123'
'CY000';'2200'
'CY000';'2201'
'CY000';'2202'
'CY000';'2220'
'CY000';'2221'
'CY000';'2222'
'CY000';'2223'
'CY000';'2224'
'CY000';'2230'
'CY000';'2231'
'CY000';'2232'
'CY000';'2234'
'CY000';'2235'
'CY000';'2236'
'CY000';'2237'
'CY000';'2238'
'CY000';'2300'
'CY000';'2301'
'CY000';'2302'
'CY000';'2303'
'CY000';'2304'
'CY000';'2305'
'CY000';'2306'
'CY000';'2310'
'CY000';'2311'
'CY000';'2312'
'CY000';'2313'
'CY000';'2314'
'CY000';'2320'
'CY000';'2321'
'CY000';'2322'
'CY000';'2323'
'CY000';'2324'
'CY000';'2325'
'CY000';'2326'
'CY000';'2328'
'CY000';'2330'
'CY000';'2331'
'CY000';'2332'
'CY000';'2333'
'CY000';'2334'
'CY000';'2335'
'CY000';'2360'
'CY000';'2361'
'CY000';'2362'
'CY000';'2363'
'CY000';'2364'
'CY000';'2365'
'CY000';'2368'
'CY000';'2369'
'CY000';'2370'
'CY000';'2373'
'CY000';'2376'
'CY000';'2385'
'CY000';'2400'
'CY000';'2401'
'CY000';'2402'
'CY000';'2404'
'CY000';'2406'
'CY000';'2407'
'CY000';'2408'
'CY000';'2409'
'CY000';'2410'
'CY000';'2411'
'CY000';'2412'
'CY000';'2413'
'CY000';'2414'
'CY000';'2415'
'CY000';'2416'
'CY000';'2417'
'CY000';'2450'
'CY000';'2460'
'CY000';'2470'
'CY000';'2480'
'CY000';'2540'
'CY000';'2546'
'CY000';'2547'
'CY000';'2548'
'CY000';'2549'
'CY000';'2560'
'CY000';'2562'
'CY000';'2563'
'CY000';'2564'
'CY000';'2565'
'CY000';'2566'
'CY000';'2567'
'CY000';'2568'
'CY000';'2571'
'CY000';'2572'
'CY000';'2573'
'CY000';'2574'
'CY000';'2600'
'CY000';'2610'
'CY000';'2611'
'CY000';'2612'
'CY000';'2613'
'CY000';'2614'
'CY000';'2615'
'CY000';'2616'
'CY000';'2617'
'CY000';'2618'
'CY000';'2619'
'CY000';'2620'
'CY000';'2622'
'CY000';'2623'
'CY000';'2630'
'CY000';'2640'
'CY000';'2641'
'CY000';'2642'
'CY000';'2643'
'CY000';'2644'
'CY000';'2645'
'CY000';'2646'
'CY000';'2647'
'CY000';'2650'
'CY000';'2651'
'CY000';'2660'
'CY000';'2671'
'CY000';'2673'
'CY000';'2674'
'CY000';'2675'
'CY000';'2679'
'CY000';'2681'
'CY000';'2682'
'CY000';'2720'
'CY000';'2722'
'CY000';'2724'
'CY000';'2728'
'CY000';'2731'
'CY000';'2740'
'CY000';'2745'
'CY000';'2750'
'CY000';'2751'
'CY000';'2752'
'CY000';'2753'
'CY000';'2754'
'CY000';'2755'
'CY000';'2756'
'CY000';'2757'
'CY000';'2758'
'CY000';'2770'
'CY000';'2771'
'CY000';'2772'
'CY000';'2773'
'CY000';'2774'
'CY000';'2775'
'CY000';'2776'
'CY000';'2777'
'CY000';'2779'
'CY000';'2780'
'CY000';'2781'
'CY000';'2800'
'CY000';'2820'
'CY000';'2821'
'CY000';'2823'
'CY000';'2826'
'CY000';'2827'
'CY000';'2831'
'CY000';'2832'
'CY000';'2834'
'CY000';'2835'
'CY000';'2836'
'CY000';'2839'
'CY000';'2840'
'CY000';'2841'
'CY000';'2842'
'CY000';'2843'
'CY000';'2844'
'CY000';'2845'
'CY000';'2850'
'CY000';'2861'
'CY000';'2862'
'CY000';'2863'
'CY000';'2864'
'CY000';'2866'
'CY000';'2867'
'CY000';'2869'
'CY000';'2900'
'CY000';'2920'
'CY000';'2940'
'CY000';'2950'
'CY000';'2951'
'CY000';'2953'
'CY000';'2955'
'CY000';'2958'
'CY000';'2959'
'CY000';'2960'
'CY000';'2961'
'CY000';'2962'
'CY000';'2964'
'CY000';'3010'
'CY000';'3011'
'CY000';'3012'
'CY000';'3013'
'CY000';'3015'
'CY000';'3016'
'CY000';'3017'
'CY000';'3020'
'CY000';'3021'
'CY000';'3022'
'CY000';'3025'
'CY000';'3026'
'CY000';'3027'
'CY000';'3030'
'CY000';'3031'
'CY000';'3032'
'CY000';'3033'
'CY000';'3035'
'CY000';'3036'
'CY000';'3040'
'CY000';'3041'
'CY000';'3042'
'CY000';'3045'
'CY000';'3046'
'CY000';'3047'
'CY000';'3048'
'CY000';'3050'
'CY000';'3051'
'CY000';'3052'
'CY000';'3055'
'CY000';'3056'
'CY000';'3060'
'CY000';'3061'
'CY000';'3065'
'CY000';'3067'
'CY000';'3070'
'CY000';'3071'
'CY000';'3075'
'CY000';'3076'
'CY000';'3077'
'CY000';'3080'
'CY000';'3081'
'CY000';'3082'
'CY000';'3083'
'CY000';'3085'
'CY000';'3086'
'CY000';'3087'
'CY000';'3090'
'CY000';'3091'
'CY000';'3095'
'CY000';'3096'
'CY000';'3100'
'CY000';'3101'
'CY000';'3105'
'CY000';'3106'
'CY000';'3107'
'CY000';'3110'
'CY000';'3111'
'CY000';'3112'
'CY000';'3113'
'CY000';'3115'
'CY000';'3116'
'CY000';'3117'
'CY000';'3118'
'CY000';'3119'
'CY000';'3120'
'CY000';'4000'
'CY000';'4001'
'CY000';'4002'
'CY000';'4003'
'CY000';'4004'
'CY000';'4005'
'CY000';'4006'
'CY000';'4007'
'CY000';'4008'
'CY000';'4041'
'CY000';'4042'
'CY000';'4043'
'CY000';'4044'
'CY000';'4045'
'CY000';'4046'
'CY000';'4047'
'CY000';'4048'
'CY000';'4100'
'CY000';'4101'
'CY000';'4102'
'CY000';'4103'
'CY000';'4104'
'CY000';'4105'
'CY000';'4106'
'CY000';'4107'
'CY000';'4108'
'CY000';'4130'
'CY000';'4131'
'CY000';'4150'
'CY000';'4151'
'CY000';'4152'
'CY000';'4153'
'CY000';'4154'
'CY000';'4155'
'CY000';'4156'
'CY000';'4157'
'CY000';'4158'
'CY000';'4159'
'CY000';'4170'
'CY000';'4180'
'CY000';'4181'
'CY000';'4182'
'CY000';'4183'
'CY000';'4184'
'CY000';'4185'
'CY000';'4186'
'CY000';'4187'
'CY000';'4188'
'CY000';'4189'
'CY000';'4190'
'CY000';'4191'
'CY000';'4192'
'CY000';'4193'
'CY000';'4194'
'CY000';'4500'
'CY000';'4501'
'CY000';'4502'
'CY000';'4504'
'CY000';'4505'
'CY000';'4506'
'CY000';'4510'
'CY000';'4520'
'CY000';'4521'
'CY000';'4522'
'CY000';'4523'
'CY000';'4524'
'CY000';'4525'
'CY000';'4527'
'CY000';'4528'
'CY000';'4529'
'CY000';'4530'
'CY000';'4540'
'CY000';'4541'
'CY000';'4542'
'CY000';'4543'
'CY000';'4544'
'CY000';'4545'
'CY000';'4546'
'CY000';'4547'
'CY000';'4549'
'CY000';'4550'
'CY000';'4551'
'CY000';'4560'
'CY000';'4561'
'CY000';'4562'
'CY000';'4563'
'CY000';'4564'
'CY000';'4565'
'CY000';'4566'
'CY000';'4600'
'CY000';'4601'
'CY000';'4602'
'CY000';'4603'
'CY000';'4604'
'CY000';'4605'
'CY000';'4606'
'CY000';'4607'
'CY000';'4620'
'CY000';'4630'
'CY000';'4631'
'CY000';'4632'
'CY000';'4633'
'CY000';'4640'
'CY000';'4645'
'CY000';'4651'
'CY000';'4652'
'CY000';'4700'
'CY000';'4710'
'CY000';'4711'
'CY000';'4712'
'CY000';'4713'
'CY000';'4715'
'CY000';'4716'
'CY000';'4717'
'CY000';'4730'
'CY000';'4740'
'CY000';'4741'
'CY000';'4742'
'CY000';'4743'
'CY000';'4744'
'CY000';'4746'
'CY000';'4747'
'CY000';'4750'
'CY000';'4760'
'CY000';'4770'
'CY000';'4771'
'CY000';'4772'
'CY000';'4774'
'CY000';'4775'
'CY000';'4776'
'CY000';'4777'
'CY000';'4778'
'CY000';'4779'
'CY000';'4780'
'CY000';'4810'
'CY000';'4811'
'CY000';'4814'
'CY000';'4815'
'CY000';'4820'
'CY000';'4840'
'CY000';'4842'
'CY000';'4843'
'CY000';'4844'
'CY000';'4845'
'CY000';'4846'
'CY000';'4860'
'CY000';'4870'
'CY000';'4871'
'CY000';'4872'
'CY000';'4873'
'CY000';'4874'
'CY000';'4875'
'CY000';'4876'
'CY000';'4878'
'CY000';'4879'
'CY000';'5280'
'CY000';'5281'
'CY000';'5282'
'CY000';'5283'
'CY000';'5284'
'CY000';'5285'
'CY000';'5286'
'CY000';'5288'
'CY000';'5289'
'CY000';'5290'
'CY000';'5291'
'CY000';'5292'
'CY000';'5295'
'CY000';'5296'
'CY000';'5297'
'CY000';'5320'
'CY000';'5330'
'CY000';'5350'
'CY000';'5370'
'CY000';'5380'
'CY000';'5390'
'CY000';'5500'
'CY000';'5510'
'CY000';'6010'
'CY000';'6011'
'CY000';'6012'
'CY000';'6013'
'CY000';'6015'
'CY000';'6016'
'CY000';'6017'
'CY000';'6018'
'CY000';'6019'
'CY000';'6020'
'CY000';'6021'
'CY000';'6022'
'CY000';'6023'
'CY000';'6025'
'CY000';'6026'
'CY000';'6027'
'CY000';'6028'
'CY000';'6030'
'CY000';'6031'
'CY000';'6035'
'CY000';'6036'
'CY000';'6037'
'CY000';'6040'
'CY000';'6041'
'CY000';'6042'
'CY000';'6043'
'CY000';'6045'
'CY000';'6046'
'CY000';'6047'
'CY000';'6050'
'CY000';'6051'
'CY000';'6052'
'CY000';'6053'
'CY000';'6055'
'CY000';'6056'
'CY000';'6057'
'CY000';'6058'
'CY000';'6059'
'CY000';'6060'
'CY000';'7000'
'CY000';'7020'
'CY000';'7040'
'CY000';'7060'
'CY000';'7080'
'CY000';'7100'
'CY000';'7101'
'CY000';'7102'
'CY000';'7103'
'CY000';'7104'
'CY000';'7120'
'CY000';'7130'
'CY000';'7499'
'CY000';'7501'
'CY000';'7503'
'CY000';'7504'
'CY000';'7505'
'CY000';'7510'
'CY000';'7520'
'CY000';'7530'
'CY000';'7550'
'CY000';'7560'
'CY000';'7561'
'CY000';'7562'
'CY000';'7570'
'CY000';'7571'
'CY000';'7572'
'CY000';'7573'
'CY000';'7574'
'CY000';'7575'
'CY000';'7576'
'CY000';'7577'
'CY000';'7578'
'CY000';'7600'
'CY000';'7621'
'CY000';'7640'
'CY000';'7641'
'CY000';'7642'
'CY000';'7643'
'CY000';'7647'
'CY000';'7648'
'CY000';'7649'
'CY000';'7700'
'CY000';'7710'
'CY000';'7711'
'CY000';'7712'
'CY000';'7713'
'CY000';'7714'
'CY000';'7715'
'CY000';'7716'
'CY000';'7718'
'CY000';'7719'
'CY000';'7730'
'CY000';'7731'
'CY000';'7733'
'CY000';'7735'
'CY000';'7736'
'CY000';'7737'
'CY000';'7739'
'CY000';'7740'
'CY000';'7741'
'CY000';'7743'
'CY000';'8010'
'CY000';'8011'
'CY000';'8015'
'CY000';'8016'
'CY000';'8020'
'CY000';'8021'
'CY000';'8025'
'CY000';'8026'
'CY000';'8027'
'CY000';'8028'
'CY000';'8035'
'CY000';'8036'
'CY000';'8040'
'CY000';'8041'
'CY000';'8042'
'CY000';'8045'
'CY000';'8046'
'CY000';'8047'
'CY000';'8048'
'CY000';'8049'
'CY000';'8200'
'CY000';'8201'
'CY000';'8202'
'CY000';'8203'
'CY000';'8204'
'CY000';'8220'
'CY000';'8240'
'CY000';'8250'
'CY000';'8260'
'CY000';'8270'
'CY000';'8280'
'CY000';'8290'
'CY000';'8300'
'CY000';'8310'
'CY000';'8500'
'CY000';'8501'
'CY000';'8502'
'CY000';'8503'
'CY000';'8504'
'CY000';'8505'
'CY000';'8506'
'CY000';'8507'
'CY000';'8520'
'CY000';'8521'
'CY000';'8522'
'CY000';'8523'
'CY000';'8524'
'CY000';'8525'
'CY000';'8526'
'CY000';'8540'
'CY000';'8541'
'CY000';'8543'
'CY000';'8544'
'CY000';'8546'
'CY000';'8547'
'CY000';'8549'
'CY000';'8550'
'CY000';'8551'
'CY000';'8552'
'CY000';'8560'
'CY000';'8570'
'CY000';'8573'
'CY000';'8574'
'CY000';'8577'
'CY000';'8600'
'CY000';'8601'
'CY000';'8603'
'CY000';'8605'
'CY000';'8606'
'CY000';'8608'
'CY000';'8609'
'CY000';'8620'
'CY000';'8621'
'CY000';'8623'
'CY000';'8625'
'CY000';'8626'
'CY000';'8627'
'CY000';'8628'
'CY000';'8629'
'CY000';'8630'
'CY000';'8631'
'CY000';'8640'
'CY000';'8641'
'CY000';'8642'
'CY000';'8643'
'CY000';'8645'
'CY000';'8646'
'CY000';'8650'
'CY000';'8651'
'CY000';'8700'
'CY000';'8702'
'CY000';'8703'
'CY000';'8704'
'CY000';'8720'
'CY000';'8721'
'CY000';'8723'
'CY000';'8724'
'CY000';'8725'
'CY000';'8726'
'CY000';'8728'
'CY000';'8729'
'CY000';'8730'
'CY000';'8740'
'CY000';'8741'
'CY000';'8742'
'CY000';'8743'
'CY000';'8744'
'CY000';'8746'
'CY000';'8747'
'CY000';'8749'
'CY000';'8800'
'CY000';'8805'
'CY000';'8808'
'CY000';'8810'
'CY000';'8811'
'CY000';'8812'
'CY000';'8820'
'CY000';'8850'
'CY000';'8851'
'CY000';'8852'
'CY000';'8855'
'CY000';'8870'
'CY000';'8872'
'CY000';'8873'
'CY000';'8875'
'CY000';'8876'
'CY000';'8879'
'CY000';'8880'
'CY000';'8881'
'CY000';'8882'
'CY000';'8884'
'CY000';'99010'
'CY000';'99040'
'CY000';'99050'
'CY000';'99100'
'CY000';'99150'
'CY000';'99300'
'CY000';'99320'
'CY000';'99350'
'CY000';'99360'
'CY000';'99370'
'CY000';'99380'
'CY000';'99390'
'CY000';'99410'
'CY000';'99420'
'CY000';'99440'
'CY000';'99450'
'CY000';'99500'
'CY000';'99520'
'CY000';'99555'
'CY000';'99610'
'CY000';'99620'
'CY000';'99650'
'CY000';'99655'
'CY000';'99660'
'CY000';'99665'
'CY000';'99670'
'CY000';'99675'
'CY000';'99680'
'CY000';'99690'
'CY000';'99700'
'CY000';'99750'
'CY000';'99790'
'CY000';'99800'
'CY000';'99850'
'CY000';'99860'
'CY000';'99870'
'CY000';'99880'
'CY000';'99890'
'CY000';'99900'
'CY000';'99910'
'CY000';'99920'
'CY000';'99950'
'CY000';'99970'
