NUTS3;CODE
'CH061';'4806'
'CH061';'4915'
'CH061';'5735'
'CH061';'6000'
'CH061';'6002'
'CH061';'6003'
'CH061';'6004'
'CH061';'6005'
'CH061';'6006'
'CH061';'6007'
'CH061';'6008'
'CH061';'6009'
'CH061';'6010'
'CH061';'6011'
'CH061';'6012'
'CH061';'6013'
'CH061';'6014'
'CH061';'6015'
'CH061';'6016'
'CH061';'6017'
'CH061';'6018'
'CH061';'6019'
'CH061';'6020'
'CH061';'6021'
'CH061';'6022'
'CH061';'6023'
'CH061';'6024'
'CH061';'6025'
'CH061';'6026'
'CH061';'6027'
'CH061';'6028'
'CH061';'6030'
'CH061';'6031'
'CH061';'6032'
'CH061';'6033'
'CH061';'6034'
'CH061';'6035'
'CH061';'6036'
'CH061';'6037'
'CH061';'6038'
'CH061';'6039'
'CH061';'6043'
'CH061';'6044'
'CH061';'6045'
'CH061';'6047'
'CH061';'6048'
'CH061';'6102'
'CH061';'6103'
'CH061';'6105'
'CH061';'6106'
'CH061';'6110'
'CH061';'6112'
'CH061';'6113'
'CH061';'6114'
'CH061';'6122'
'CH061';'6123'
'CH061';'6125'
'CH061';'6126'
'CH061';'6130'
'CH061';'6132'
'CH061';'6133'
'CH061';'6142'
'CH061';'6143'
'CH061';'6144'
'CH061';'6145'
'CH061';'6146'
'CH061';'6147'
'CH061';'6152'
'CH061';'6153'
'CH061';'6154'
'CH061';'6156'
'CH061';'6160'
'CH061';'6161'
'CH061';'6162'
'CH061';'6163'
'CH061';'6166'
'CH061';'6167'
'CH061';'6170'
'CH061';'6173'
'CH061';'6174'
'CH061';'6182'
'CH061';'6192'
'CH061';'6196'
'CH061';'6203'
'CH061';'6204'
'CH061';'6205'
'CH061';'6206'
'CH061';'6207'
'CH061';'6208'
'CH061';'6210'
'CH061';'6211'
'CH061';'6212'
'CH061';'6213'
'CH061';'6214'
'CH061';'6215'
'CH061';'6216'
'CH061';'6217'
'CH061';'6218'
'CH061';'6221'
'CH061';'6222'
'CH061';'6231'
'CH061';'6232'
'CH061';'6233'
'CH061';'6234'
'CH061';'6235'
'CH061';'6236'
'CH061';'6242'
'CH061';'6243'
'CH061';'6244'
'CH061';'6245'
'CH061';'6246'
'CH061';'6247'
'CH061';'6248'
'CH061';'6252'
'CH061';'6253'
'CH061';'6260'
'CH061';'6262'
'CH061';'6263'
'CH061';'6264'
'CH061';'6265'
'CH061';'6274'
'CH061';'6275'
'CH061';'6276'
'CH061';'6277'
'CH061';'6280'
'CH061';'6281'
'CH061';'6283'
'CH061';'6284'
'CH061';'6285'
'CH061';'6286'
'CH061';'6287'
'CH061';'6288'
'CH061';'6289'
'CH061';'6294'
'CH061';'6295'
'CH061';'6344'
'CH061';'6353'
'CH061';'6354'
'CH061';'6365'
'CH061';'6404'
'CH062';'6377'
'CH062';'6441'
'CH062';'6452'
'CH062';'6454'
'CH062';'6460'
'CH062';'6461'
'CH062';'6462'
'CH062';'6463'
'CH062';'6464'
'CH062';'6465'
'CH062';'6466'
'CH062';'6467'
'CH062';'6468'
'CH062';'6469'
'CH062';'6472'
'CH062';'6473'
'CH062';'6474'
'CH062';'6475'
'CH062';'6476'
'CH062';'6482'
'CH062';'6484'
'CH062';'6485'
'CH062';'6487'
'CH062';'6490'
'CH062';'6491'
'CH062';'6493'
'CH062';'8751'
'CH040';'8000'
'CH040';'8001'
'CH040';'8002'
'CH040';'8003'
'CH040';'8004'
'CH040';'8005'
'CH040';'8006'
'CH040';'8008'
'CH040';'8010'
'CH040';'8011'
'CH040';'8012'
'CH040';'8015'
'CH040';'8016'
'CH040';'8020'
'CH040';'8021'
'CH040';'8022'
'CH040';'8023'
'CH040';'8024'
'CH040';'8026'
'CH040';'8027'
'CH040';'8030'
'CH040';'8031'
'CH040';'8032'
'CH040';'8033'
'CH040';'8034'
'CH040';'8036'
'CH040';'8037'
'CH040';'8038'
'CH040';'8039'
'CH040';'8040'
'CH040';'8041'
'CH040';'8042'
'CH040';'8044'
'CH040';'8045'
'CH040';'8046'
'CH040';'8047'
'CH040';'8048'
'CH040';'8049'
'CH040';'8050'
'CH040';'8051'
'CH040';'8052'
'CH040';'8053'
'CH040';'8055'
'CH040';'8057'
'CH040';'8058'
'CH040';'8059'
'CH040';'8060'
'CH040';'8061'
'CH040';'8063'
'CH040';'8064'
'CH040';'8065'
'CH040';'8066'
'CH040';'8068'
'CH040';'8070'
'CH040';'8071'
'CH040';'8074'
'CH040';'8075'
'CH040';'8080'
'CH040';'8081'
'CH040';'8085'
'CH040';'8086'
'CH040';'8087'
'CH040';'8088'
'CH040';'8090'
'CH040';'8091'
'CH040';'8092'
'CH040';'8093'
'CH040';'8096'
'CH040';'8098'
'CH040';'8099'
'CH040';'8102'
'CH040';'8103'
'CH040';'8104'
'CH040';'8105'
'CH040';'8106'
'CH040';'8107'
'CH040';'8108'
'CH040';'8109'
'CH040';'8112'
'CH040';'8113'
'CH040';'8114'
'CH040';'8115'
'CH040';'8117'
'CH040';'8118'
'CH040';'8121'
'CH040';'8122'
'CH040';'8123'
'CH040';'8124'
'CH040';'8125'
'CH040';'8126'
'CH040';'8127'
'CH040';'8130'
'CH040';'8132'
'CH040';'8133'
'CH040';'8134'
'CH040';'8135'
'CH040';'8136'
'CH040';'8142'
'CH040';'8143'
'CH040';'8152'
'CH040';'8153'
'CH040';'8154'
'CH040';'8155'
'CH040';'8156'
'CH040';'8157'
'CH040';'8158'
'CH040';'8162'
'CH040';'8164'
'CH040';'8165'
'CH040';'8166'
'CH040';'8172'
'CH040';'8173'
'CH040';'8174'
'CH040';'8175'
'CH040';'8180'
'CH040';'8181'
'CH040';'8182'
'CH040';'8183'
'CH040';'8184'
'CH040';'8185'
'CH040';'8187'
'CH040';'8192'
'CH040';'8193'
'CH040';'8194'
'CH040';'8195'
'CH040';'8196'
'CH040';'8197'
'CH040';'8245'
'CH040';'8246'
'CH040';'8247'
'CH040';'8248'
'CH040';'8301'
'CH040';'8302'
'CH040';'8303'
'CH040';'8304'
'CH040';'8305'
'CH040';'8306'
'CH040';'8307'
'CH040';'8308'
'CH040';'8309'
'CH040';'8310'
'CH040';'8311'
'CH040';'8312'
'CH040';'8314'
'CH040';'8315'
'CH040';'8317'
'CH040';'8320'
'CH040';'8322'
'CH040';'8325'
'CH040';'8330'
'CH040';'8331'
'CH040';'8332'
'CH040';'8335'
'CH040';'8340'
'CH040';'8342'
'CH040';'8343'
'CH040';'8344'
'CH040';'8345'
'CH040';'8352'
'CH040';'8353'
'CH040';'8354'
'CH040';'8400'
'CH040';'8401'
'CH040';'8402'
'CH040';'8404'
'CH040';'8405'
'CH040';'8406'
'CH040';'8408'
'CH040';'8409'
'CH040';'8410'
'CH040';'8411'
'CH040';'8412'
'CH040';'8413'
'CH040';'8414'
'CH040';'8415'
'CH040';'8416'
'CH040';'8418'
'CH040';'8421'
'CH040';'8422'
'CH040';'8423'
'CH040';'8424'
'CH040';'8425'
'CH040';'8426'
'CH040';'8427'
'CH040';'8428'
'CH040';'8442'
'CH040';'8444'
'CH040';'8447'
'CH040';'8450'
'CH040';'8451'
'CH040';'8452'
'CH040';'8453'
'CH040';'8457'
'CH040';'8458'
'CH040';'8459'
'CH040';'8460'
'CH040';'8461'
'CH040';'8462'
'CH040';'8463'
'CH040';'8464'
'CH040';'8465'
'CH040';'8466'
'CH040';'8467'
'CH040';'8468'
'CH040';'8471'
'CH040';'8472'
'CH040';'8474'
'CH040';'8475'
'CH040';'8476'
'CH040';'8477'
'CH040';'8478'
'CH040';'8479'
'CH040';'8482'
'CH040';'8483'
'CH040';'8484'
'CH040';'8486'
'CH040';'8487'
'CH040';'8488'
'CH040';'8489'
'CH040';'8492'
'CH040';'8493'
'CH040';'8494'
'CH040';'8495'
'CH040';'8496'
'CH040';'8497'
'CH040';'8498'
'CH040';'8499'
'CH040';'8523'
'CH040';'8540'
'CH040';'8542'
'CH040';'8543'
'CH040';'8544'
'CH040';'8545'
'CH040';'8548'
'CH040';'8600'
'CH040';'8602'
'CH040';'8603'
'CH040';'8604'
'CH040';'8605'
'CH040';'8606'
'CH040';'8607'
'CH040';'8608'
'CH040';'8610'
'CH040';'8612'
'CH040';'8613'
'CH040';'8614'
'CH040';'8615'
'CH040';'8616'
'CH040';'8617'
'CH040';'8618'
'CH040';'8620'
'CH040';'8621'
'CH040';'8622'
'CH040';'8623'
'CH040';'8624'
'CH040';'8625'
'CH040';'8626'
'CH040';'8627'
'CH040';'8630'
'CH040';'8632'
'CH040';'8633'
'CH040';'8634'
'CH040';'8635'
'CH040';'8636'
'CH040';'8637'
'CH040';'8639'
'CH040';'8700'
'CH040';'8702'
'CH040';'8703'
'CH040';'8704'
'CH040';'8706'
'CH040';'8707'
'CH040';'8708'
'CH040';'8712'
'CH040';'8713'
'CH040';'8714'
'CH040';'8800'
'CH040';'8801'
'CH040';'8802'
'CH040';'8803'
'CH040';'8804'
'CH040';'8805'
'CH040';'8810'
'CH040';'8812'
'CH040';'8813'
'CH040';'8815'
'CH040';'8816'
'CH040';'8820'
'CH040';'8824'
'CH040';'8825'
'CH040';'8833'
'CH040';'8901'
'CH040';'8902'
'CH040';'8903'
'CH040';'8904'
'CH040';'8906'
'CH040';'8907'
'CH040';'8908'
'CH040';'8909'
'CH040';'8910'
'CH040';'8911'
'CH040';'8912'
'CH040';'8913'
'CH040';'8914'
'CH040';'8915'
'CH040';'8925'
'CH040';'8926'
'CH040';'8932'
'CH040';'8933'
'CH040';'8934'
'CH040';'8942'
'CH040';'8951'
'CH040';'8952'
'CH040';'8953'
'CH040';'8954'
'CH040';'8955'
'CH040';'8970'
'CH011';'1000'
'CH011';'1001'
'CH011';'1002'
'CH011';'1003'
'CH011';'1004'
'CH011';'1005'
'CH011';'1006'
'CH011';'1007'
'CH011';'1008'
'CH011';'1009'
'CH011';'1010'
'CH011';'1011'
'CH011';'1012'
'CH011';'1014'
'CH011';'1015'
'CH011';'1017'
'CH011';'1018'
'CH011';'1019'
'CH011';'1020'
'CH011';'1022'
'CH011';'1023'
'CH011';'1024'
'CH011';'1025'
'CH011';'1026'
'CH011';'1027'
'CH011';'1028'
'CH011';'1029'
'CH011';'1030'
'CH011';'1031'
'CH011';'1032'
'CH011';'1033'
'CH011';'1034'
'CH011';'1035'
'CH011';'1036'
'CH011';'1037'
'CH011';'1038'
'CH011';'1039'
'CH011';'1040'
'CH011';'1041'
'CH011';'1042'
'CH011';'1043'
'CH011';'1044'
'CH011';'1045'
'CH011';'1046'
'CH011';'1047'
'CH011';'1052'
'CH011';'1053'
'CH011';'1054'
'CH011';'1055'
'CH011';'1058'
'CH011';'1059'
'CH011';'1061'
'CH011';'1062'
'CH011';'1063'
'CH011';'1066'
'CH011';'1068'
'CH011';'1070'
'CH011';'1071'
'CH011';'1072'
'CH011';'1073'
'CH011';'1076'
'CH011';'1077'
'CH011';'1078'
'CH011';'1080'
'CH011';'1081'
'CH011';'1082'
'CH011';'1083'
'CH011';'1084'
'CH011';'1085'
'CH011';'1088'
'CH011';'1090'
'CH011';'1091'
'CH011';'1092'
'CH011';'1093'
'CH011';'1094'
'CH011';'1095'
'CH011';'1096'
'CH011';'1097'
'CH011';'1098'
'CH011';'1110'
'CH011';'1112'
'CH011';'1113'
'CH011';'1114'
'CH011';'1115'
'CH011';'1116'
'CH011';'1117'
'CH011';'1121'
'CH011';'1122'
'CH011';'1123'
'CH011';'1124'
'CH011';'1125'
'CH011';'1126'
'CH011';'1127'
'CH011';'1128'
'CH011';'1131'
'CH011';'1132'
'CH011';'1134'
'CH011';'1135'
'CH011';'1136'
'CH011';'1141'
'CH011';'1142'
'CH011';'1143'
'CH011';'1144'
'CH011';'1145'
'CH011';'1146'
'CH011';'1147'
'CH011';'1148'
'CH011';'1149'
'CH011';'1162'
'CH011';'1163'
'CH011';'1164'
'CH011';'1165'
'CH011';'1166'
'CH011';'1167'
'CH011';'1168'
'CH011';'1169'
'CH011';'1170'
'CH011';'1172'
'CH011';'1173'
'CH011';'1174'
'CH011';'1175'
'CH011';'1176'
'CH011';'1180'
'CH011';'1182'
'CH011';'1183'
'CH011';'1184'
'CH011';'1185'
'CH011';'1186'
'CH011';'1187'
'CH011';'1188'
'CH011';'1189'
'CH011';'1195'
'CH011';'1196'
'CH011';'1197'
'CH011';'1260'
'CH011';'1261'
'CH011';'1262'
'CH011';'1263'
'CH011';'1264'
'CH011';'1265'
'CH011';'1266'
'CH011';'1267'
'CH011';'1268'
'CH011';'1269'
'CH011';'1270'
'CH011';'1271'
'CH011';'1272'
'CH011';'1273'
'CH011';'1274'
'CH011';'1275'
'CH011';'1276'
'CH011';'1277'
'CH011';'1278'
'CH011';'1279'
'CH011';'1290'
'CH011';'1291'
'CH011';'1295'
'CH011';'1296'
'CH011';'1297'
'CH011';'1298'
'CH011';'1300'
'CH011';'1302'
'CH011';'1303'
'CH011';'1304'
'CH011';'1305'
'CH011';'1306'
'CH011';'1307'
'CH011';'1308'
'CH011';'1310'
'CH011';'1311'
'CH011';'1312'
'CH011';'1313'
'CH011';'1315'
'CH011';'1316'
'CH011';'1317'
'CH011';'1318'
'CH011';'1320'
'CH011';'1321'
'CH011';'1322'
'CH011';'1323'
'CH011';'1324'
'CH011';'1325'
'CH011';'1326'
'CH011';'1329'
'CH011';'1330'
'CH011';'1337'
'CH011';'1338'
'CH011';'1341'
'CH011';'1342'
'CH011';'1343'
'CH011';'1344'
'CH011';'1345'
'CH011';'1346'
'CH011';'1347'
'CH011';'1348'
'CH011';'1350'
'CH011';'1352'
'CH011';'1353'
'CH011';'1354'
'CH011';'1355'
'CH011';'1356'
'CH011';'1357'
'CH011';'1358'
'CH011';'1372'
'CH011';'1373'
'CH011';'1374'
'CH011';'1375'
'CH011';'1376'
'CH011';'1377'
'CH011';'1400'
'CH011';'1401'
'CH011';'1404'
'CH011';'1405'
'CH011';'1406'
'CH011';'1407'
'CH011';'1408'
'CH011';'1409'
'CH011';'1410'
'CH011';'1412'
'CH011';'1413'
'CH011';'1415'
'CH011';'1416'
'CH011';'1417'
'CH011';'1418'
'CH011';'1420'
'CH011';'1421'
'CH011';'1422'
'CH011';'1423'
'CH011';'1424'
'CH011';'1425'
'CH011';'1426'
'CH011';'1427'
'CH011';'1428'
'CH011';'1429'
'CH011';'1430'
'CH011';'1431'
'CH011';'1432'
'CH011';'1433'
'CH011';'1434'
'CH011';'1435'
'CH011';'1436'
'CH011';'1437'
'CH011';'1438'
'CH011';'1439'
'CH011';'1440'
'CH011';'1441'
'CH011';'1442'
'CH011';'1443'
'CH011';'1445'
'CH011';'1446'
'CH011';'1450'
'CH011';'1452'
'CH011';'1453'
'CH011';'1454'
'CH011';'1462'
'CH011';'1463'
'CH011';'1464'
'CH011';'1509'
'CH011';'1510'
'CH011';'1512'
'CH011';'1513'
'CH011';'1514'
'CH011';'1515'
'CH011';'1521'
'CH011';'1522'
'CH011';'1523'
'CH011';'1524'
'CH011';'1525'
'CH011';'1526'
'CH011';'1530'
'CH011';'1534'
'CH011';'1535'
'CH011';'1536'
'CH011';'1537'
'CH011';'1538'
'CH011';'1543'
'CH011';'1545'
'CH011';'1551'
'CH011';'1552'
'CH011';'1554'
'CH011';'1555'
'CH011';'1562'
'CH011';'1565'
'CH011';'1580'
'CH011';'1582'
'CH011';'1584'
'CH011';'1585'
'CH011';'1586'
'CH011';'1587'
'CH011';'1588'
'CH011';'1589'
'CH011';'1595'
'CH011';'1607'
'CH011';'1608'
'CH011';'1610'
'CH011';'1612'
'CH011';'1613'
'CH011';'1658'
'CH011';'1659'
'CH011';'1660'
'CH011';'1682'
'CH011';'1683'
'CH011';'1800'
'CH011';'1801'
'CH011';'1802'
'CH011';'1803'
'CH011';'1804'
'CH011';'1805'
'CH011';'1806'
'CH011';'1807'
'CH011';'1808'
'CH011';'1809'
'CH011';'1811'
'CH011';'1814'
'CH011';'1815'
'CH011';'1816'
'CH011';'1817'
'CH011';'1818'
'CH011';'1820'
'CH011';'1822'
'CH011';'1823'
'CH011';'1824'
'CH011';'1832'
'CH011';'1833'
'CH011';'1844'
'CH011';'1845'
'CH011';'1846'
'CH011';'1847'
'CH011';'1852'
'CH011';'1853'
'CH011';'1854'
'CH011';'1856'
'CH011';'1860'
'CH011';'1862'
'CH011';'1863'
'CH011';'1864'
'CH011';'1865'
'CH011';'1866'
'CH011';'1867'
'CH011';'1880'
'CH011';'1882'
'CH011';'1884'
'CH011';'1885'
'CH011';'1892'
'CH011';'2108'
'CH057';'8238'
'CH070';'6911'
'CH056';'6534'
'CH056';'6535'
'CH056';'6537'
'CH056';'6538'
'CH056';'6540'
'CH056';'6541'
'CH056';'6542'
'CH056';'6543'
'CH056';'6544'
'CH056';'6545'
'CH056';'6546'
'CH056';'6547'
'CH056';'6548'
'CH056';'6549'
'CH056';'6556'
'CH056';'6557'
'CH056';'6558'
'CH056';'6562'
'CH056';'6563'
'CH056';'6565'
'CH056';'7000'
'CH056';'7001'
'CH056';'7002'
'CH056';'7003'
'CH056';'7004'
'CH056';'7006'
'CH056';'7007'
'CH056';'7012'
'CH056';'7013'
'CH056';'7014'
'CH056';'7015'
'CH056';'7016'
'CH056';'7017'
'CH056';'7018'
'CH056';'7019'
'CH056';'7023'
'CH056';'7026'
'CH056';'7027'
'CH056';'7028'
'CH056';'7029'
'CH056';'7031'
'CH056';'7032'
'CH056';'7050'
'CH056';'7056'
'CH056';'7057'
'CH056';'7058'
'CH056';'7062'
'CH056';'7063'
'CH056';'7064'
'CH056';'7074'
'CH056';'7075'
'CH056';'7076'
'CH056';'7077'
'CH056';'7078'
'CH056';'7082'
'CH056';'7083'
'CH056';'7084'
'CH056';'7104'
'CH056';'7106'
'CH056';'7107'
'CH056';'7109'
'CH056';'7110'
'CH056';'7111'
'CH056';'7112'
'CH056';'7113'
'CH056';'7114'
'CH056';'7115'
'CH056';'7116'
'CH056';'7122'
'CH056';'7126'
'CH056';'7127'
'CH056';'7128'
'CH056';'7130'
'CH056';'7132'
'CH056';'7133'
'CH056';'7134'
'CH056';'7135'
'CH056';'7136'
'CH056';'7137'
'CH056';'7138'
'CH056';'7141'
'CH056';'7142'
'CH056';'7143'
'CH056';'7144'
'CH056';'7145'
'CH056';'7146'
'CH056';'7147'
'CH056';'7148'
'CH056';'7149'
'CH056';'7151'
'CH056';'7152'
'CH056';'7153'
'CH056';'7154'
'CH056';'7155'
'CH056';'7156'
'CH056';'7157'
'CH056';'7158'
'CH056';'7159'
'CH056';'7162'
'CH056';'7163'
'CH056';'7164'
'CH056';'7165'
'CH056';'7166'
'CH056';'7167'
'CH056';'7168'
'CH056';'7172'
'CH056';'7173'
'CH056';'7174'
'CH056';'7175'
'CH056';'7176'
'CH056';'7180'
'CH056';'7182'
'CH056';'7183'
'CH056';'7184'
'CH056';'7185'
'CH056';'7186'
'CH056';'7187'
'CH056';'7188'
'CH056';'7189'
'CH056';'7201'
'CH056';'7202'
'CH056';'7203'
'CH056';'7204'
'CH056';'7205'
'CH056';'7206'
'CH056';'7208'
'CH056';'7212'
'CH056';'7213'
'CH056';'7214'
'CH056';'7215'
'CH056';'7220'
'CH056';'7222'
'CH056';'7223'
'CH056';'7224'
'CH056';'7226'
'CH056';'7228'
'CH056';'7231'
'CH056';'7232'
'CH056';'7233'
'CH056';'7235'
'CH056';'7240'
'CH056';'7241'
'CH056';'7242'
'CH056';'7243'
'CH056';'7244'
'CH056';'7245'
'CH056';'7246'
'CH056';'7247'
'CH056';'7249'
'CH056';'7250'
'CH056';'7252'
'CH056';'7260'
'CH056';'7265'
'CH056';'7270'
'CH056';'7272'
'CH056';'7276'
'CH056';'7277'
'CH056';'7278'
'CH056';'7302'
'CH056';'7303'
'CH056';'7304'
'CH056';'7306'
'CH056';'7307'
'CH056';'7402'
'CH056';'7403'
'CH056';'7404'
'CH056';'7405'
'CH056';'7407'
'CH056';'7408'
'CH056';'7411'
'CH056';'7412'
'CH056';'7413'
'CH056';'7414'
'CH056';'7415'
'CH056';'7416'
'CH056';'7417'
'CH056';'7418'
'CH056';'7419'
'CH056';'7421'
'CH056';'7422'
'CH056';'7423'
'CH056';'7424'
'CH056';'7425'
'CH056';'7426'
'CH056';'7427'
'CH056';'7428'
'CH056';'7430'
'CH056';'7431'
'CH056';'7432'
'CH056';'7433'
'CH056';'7434'
'CH056';'7435'
'CH056';'7436'
'CH056';'7437'
'CH056';'7438'
'CH056';'7440'
'CH056';'7442'
'CH056';'7443'
'CH056';'7444'
'CH056';'7446'
'CH056';'7447'
'CH056';'7448'
'CH056';'7450'
'CH056';'7451'
'CH056';'7452'
'CH056';'7453'
'CH056';'7454'
'CH056';'7455'
'CH056';'7456'
'CH056';'7457'
'CH056';'7458'
'CH056';'7459'
'CH056';'7460'
'CH056';'7462'
'CH056';'7463'
'CH056';'7464'
'CH056';'7472'
'CH056';'7473'
'CH056';'7477'
'CH056';'7482'
'CH056';'7484'
'CH056';'7492'
'CH056';'7493'
'CH056';'7494'
'CH056';'7500'
'CH056';'7502'
'CH056';'7503'
'CH056';'7504'
'CH056';'7505'
'CH056';'7512'
'CH056';'7513'
'CH056';'7514'
'CH056';'7515'
'CH056';'7516'
'CH056';'7517'
'CH056';'7522'
'CH056';'7523'
'CH056';'7524'
'CH056';'7525'
'CH056';'7526'
'CH056';'7527'
'CH056';'7530'
'CH056';'7532'
'CH056';'7533'
'CH056';'7534'
'CH056';'7535'
'CH056';'7536'
'CH056';'7537'
'CH056';'7542'
'CH056';'7543'
'CH056';'7545'
'CH056';'7546'
'CH056';'7550'
'CH056';'7551'
'CH056';'7552'
'CH056';'7553'
'CH056';'7554'
'CH056';'7556'
'CH056';'7557'
'CH056';'7558'
'CH056';'7559'
'CH056';'7560'
'CH056';'7562'
'CH056';'7563'
'CH056';'7602'
'CH056';'7603'
'CH056';'7604'
'CH056';'7605'
'CH056';'7606'
'CH056';'7608'
'CH056';'7610'
'CH056';'7710'
'CH056';'7741'
'CH056';'7742'
'CH056';'7743'
'CH056';'7744'
'CH056';'7745'
'CH056';'7746'
'CH056';'7747'
'CH056';'7748'
'CH057';'8252'
'CH057';'8253'
'CH057';'8254'
'CH057';'8255'
'CH057';'8259'
'CH057';'8264'
'CH057';'8265'
'CH057';'8266'
'CH057';'8267'
'CH057';'8268'
'CH057';'8269'
'CH057';'8272'
'CH057';'8273'
'CH057';'8274'
'CH057';'8280'
'CH057';'8285'
'CH057';'8355'
'CH057';'8356'
'CH057';'8357'
'CH057';'8360'
'CH057';'8362'
'CH057';'8363'
'CH057';'8370'
'CH057';'8371'
'CH057';'8372'
'CH057';'8374'
'CH057';'8376'
'CH057';'8500'
'CH057';'8501'
'CH057';'8502'
'CH057';'8503'
'CH057';'8505'
'CH057';'8506'
'CH057';'8507'
'CH057';'8508'
'CH057';'8510'
'CH057';'8512'
'CH057';'8514'
'CH057';'8520'
'CH057';'8522'
'CH057';'8524'
'CH057';'8525'
'CH057';'8526'
'CH057';'8530'
'CH057';'8532'
'CH057';'8535'
'CH057';'8536'
'CH057';'8537'
'CH057';'8546'
'CH057';'8547'
'CH057';'8552'
'CH057';'8553'
'CH057';'8554'
'CH057';'8555'
'CH057';'8556'
'CH057';'8558'
'CH057';'8560'
'CH057';'8561'
'CH057';'8564'
'CH057';'8565'
'CH057';'8566'
'CH057';'8570'
'CH057';'8572'
'CH057';'8573'
'CH057';'8574'
'CH057';'8575'
'CH057';'8576'
'CH057';'8577'
'CH057';'8580'
'CH057';'8581'
'CH057';'8582'
'CH057';'8583'
'CH057';'8584'
'CH057';'8585'
'CH057';'8586'
'CH057';'8587'
'CH057';'8588'
'CH057';'8589'
'CH057';'8590'
'CH057';'8592'
'CH057';'8593'
'CH057';'8594'
'CH057';'8595'
'CH057';'8596'
'CH057';'8597'
'CH057';'8598'
'CH057';'8599'
'CH057';'9213'
'CH057';'9214'
'CH057';'9215'
'CH057';'9216'
'CH057';'9217'
'CH057';'9220'
'CH057';'9223'
'CH057';'9225'
'CH057';'9306'
'CH057';'9314'
'CH057';'9315'
'CH057';'9320'
'CH057';'9322'
'CH057';'9325'
'CH057';'9326'
'CH057';'9501'
'CH057';'9502'
'CH057';'9503'
'CH057';'9504'
'CH057';'9506'
'CH057';'9507'
'CH057';'9508'
'CH057';'9510'
'CH057';'9514'
'CH057';'9515'
'CH057';'9517'
'CH057';'9535'
'CH057';'9542'
'CH057';'9543'
'CH057';'9545'
'CH057';'9546'
'CH057';'9547'
'CH057';'9548'
'CH057';'9553'
'CH057';'9554'
'CH057';'9555'
'CH057';'9556'
'CH057';'9562'
'CH057';'9565'
'CH057';'9573'
'CH070';'6500'
'CH070';'6501'
'CH070';'6503'
'CH070';'6506'
'CH070';'6511'
'CH070';'6512'
'CH070';'6513'
'CH070';'6514'
'CH070';'6515'
'CH070';'6516'
'CH070';'6517'
'CH070';'6518'
'CH070';'6523'
'CH070';'6524'
'CH070';'6525'
'CH070';'6526'
'CH070';'6527'
'CH070';'6528'
'CH070';'6532'
'CH070';'6533'
'CH070';'6571'
'CH070';'6572'
'CH070';'6573'
'CH070';'6574'
'CH070';'6575'
'CH070';'6576'
'CH070';'6577'
'CH070';'6578'
'CH070';'6579'
'CH070';'6582'
'CH070';'6583'
'CH070';'6584'
'CH070';'6590'
'CH070';'6592'
'CH070';'6593'
'CH070';'6594'
'CH070';'6595'
'CH070';'6596'
'CH070';'6597'
'CH070';'6598'
'CH070';'6599'
'CH070';'6600'
'CH070';'6601'
'CH070';'6602'
'CH070';'6604'
'CH070';'6605'
'CH070';'6611'
'CH070';'6612'
'CH070';'6613'
'CH070';'6614'
'CH070';'6616'
'CH070';'6618'
'CH070';'6622'
'CH070';'6631'
'CH070';'6632'
'CH070';'6633'
'CH070';'6634'
'CH070';'6635'
'CH070';'6636'
'CH070';'6637'
'CH070';'6644'
'CH070';'6645'
'CH070';'6646'
'CH070';'6647'
'CH070';'6648'
'CH070';'6652'
'CH070';'6653'
'CH070';'6654'
'CH070';'6655'
'CH070';'6656'
'CH070';'6657'
'CH070';'6658'
'CH070';'6659'
'CH070';'6661'
'CH070';'6662'
'CH070';'6663'
'CH070';'6664'
'CH070';'6670'
'CH070';'6672'
'CH070';'6673'
'CH070';'6674'
'CH070';'6675'
'CH070';'6676'
'CH070';'6677'
'CH070';'6678'
'CH070';'6682'
'CH070';'6683'
'CH070';'6684'
'CH070';'6685'
'CH070';'6690'
'CH070';'6692'
'CH070';'6693'
'CH070';'6694'
'CH070';'6695'
'CH070';'6696'
'CH070';'6702'
'CH070';'6703'
'CH070';'6705'
'CH070';'6707'
'CH070';'6710'
'CH070';'6713'
'CH070';'6714'
'CH070';'6715'
'CH070';'6716'
'CH070';'6717'
'CH070';'6718'
'CH070';'6719'
'CH070';'6720'
'CH070';'6721'
'CH070';'6722'
'CH070';'6723'
'CH070';'6724'
'CH070';'6742'
'CH070';'6743'
'CH070';'6744'
'CH070';'6745'
'CH070';'6746'
'CH070';'6747'
'CH070';'6748'
'CH070';'6749'
'CH070';'6760'
'CH070';'6763'
'CH070';'6764'
'CH070';'6772'
'CH070';'6773'
'CH070';'6774'
'CH070';'6775'
'CH070';'6776'
'CH070';'6777'
'CH070';'6780'
'CH070';'6781'
'CH070';'6802'
'CH070';'6803'
'CH070';'6804'
'CH070';'6805'
'CH070';'6806'
'CH070';'6807'
'CH070';'6808'
'CH070';'6809'
'CH070';'6810'
'CH070';'6814'
'CH070';'6815'
'CH070';'6816'
'CH070';'6817'
'CH070';'6818'
'CH070';'6821'
'CH070';'6822'
'CH070';'6823'
'CH070';'6825'
'CH070';'6826'
'CH070';'6827'
'CH070';'6828'
'CH070';'6830'
'CH070';'6832'
'CH070';'6833'
'CH070';'6834'
'CH070';'6835'
'CH070';'6836'
'CH070';'6837'
'CH070';'6838'
'CH070';'6839'
'CH070';'6850'
'CH070';'6852'
'CH070';'6853'
'CH070';'6854'
'CH070';'6855'
'CH070';'6862'
'CH070';'6863'
'CH070';'6864'
'CH070';'6865'
'CH070';'6866'
'CH070';'6867'
'CH070';'6872'
'CH070';'6873'
'CH070';'6874'
'CH070';'6875'
'CH070';'6877'
'CH070';'6883'
'CH070';'6900'
'CH070';'6901'
'CH070';'6902'
'CH070';'6903'
'CH070';'6904'
'CH070';'6905'
'CH070';'6906'
'CH070';'6907'
'CH070';'6908'
'CH070';'6912'
'CH070';'6913'
'CH070';'6914'
'CH070';'6915'
'CH070';'6916'
'CH070';'6917'
'CH070';'6918'
'CH070';'6919'
'CH070';'6921'
'CH070';'6922'
'CH070';'6924'
'CH070';'6925'
'CH070';'6926'
'CH070';'6927'
'CH070';'6928'
'CH070';'6929'
'CH070';'6930'
'CH070';'6932'
'CH070';'6933'
'CH070';'6934'
'CH070';'6935'
'CH070';'6936'
'CH070';'6937'
'CH070';'6938'
'CH070';'6939'
'CH070';'6942'
'CH070';'6943'
'CH070';'6944'
'CH070';'6945'
'CH070';'6946'
'CH070';'6947'
'CH070';'6948'
'CH070';'6949'
'CH070';'6950'
'CH070';'6951'
'CH070';'6952'
'CH070';'6953'
'CH070';'6954'
'CH070';'6955'
'CH070';'6956'
'CH070';'6957'
'CH070';'6958'
'CH070';'6959'
'CH070';'6962'
'CH070';'6963'
'CH070';'6964'
'CH070';'6965'
'CH070';'6966'
'CH070';'6967'
'CH070';'6968'
'CH070';'6974'
'CH070';'6976'
'CH070';'6977'
'CH070';'6978'
'CH070';'6979'
'CH070';'6980'
'CH070';'6981'
'CH070';'6982'
'CH070';'6983'
'CH070';'6984'
'CH070';'6986'
'CH070';'6987'
'CH070';'6988'
'CH070';'6989'
'CH070';'6990'
'CH070';'6991'
'CH070';'6992'
'CH070';'6993'
'CH070';'6994'
'CH070';'6995'
'CH070';'6996'
'CH070';'6997'
'CH070';'6998'
'CH070';'6999'
'CH066';'6300'
'CH066';'6301'
'CH066';'6302'
'CH066';'6303'
'CH066';'6304'
'CH066';'6310'
'CH066';'6312'
'CH066';'6313'
'CH066';'6314'
'CH066';'6315'
'CH066';'6317'
'CH066';'6318'
'CH066';'6319'
'CH066';'6330'
'CH066';'6331'
'CH066';'6332'
'CH066';'6333'
'CH066';'6340'
'CH066';'6341'
'CH066';'6342'
'CH066';'6343'
'CH066';'6345'
'CH066';'6346'
'CH066';'6349'
'CH055';'9489'
'CH065';'6052'
'CH065';'6362'
'CH065';'6363'
'CH065';'6370'
'CH065';'6371'
'CH065';'6372'
'CH065';'6373'
'CH065';'6374'
'CH065';'6375'
'CH065';'6376'
'CH065';'6382'
'CH065';'6383'
'CH065';'6386'
'CH065';'6387'
'CH052';'8200'
'CH052';'8201'
'CH052';'8202'
'CH052';'8203'
'CH052';'8204'
'CH052';'8205'
'CH052';'8207'
'CH052';'8208'
'CH052';'8210'
'CH052';'8213'
'CH052';'8214'
'CH052';'8215'
'CH052';'8216'
'CH052';'8217'
'CH052';'8218'
'CH052';'8219'
'CH052';'8222'
'CH052';'8223'
'CH052';'8224'
'CH052';'8225'
'CH052';'8226'
'CH052';'8228'
'CH052';'8231'
'CH052';'8232'
'CH052';'8233'
'CH052';'8234'
'CH052';'8235'
'CH052';'8236'
'CH052';'8239'
'CH052';'8240'
'CH052';'8241'
'CH052';'8242'
'CH052';'8243'
'CH052';'8260'
'CH052';'8261'
'CH052';'8262'
'CH052';'8263'
'CH052';'8454'
'CH052';'8455'
'CH022';'1468'
'CH022';'1470'
'CH022';'1473'
'CH022';'1474'
'CH022';'1475'
'CH022';'1482'
'CH022';'1483'
'CH022';'1484'
'CH022';'1485'
'CH022';'1486'
'CH022';'1489'
'CH022';'1527'
'CH022';'1528'
'CH022';'1529'
'CH022';'1532'
'CH022';'1533'
'CH022';'1541'
'CH022';'1542'
'CH022';'1544'
'CH022';'1553'
'CH022';'1563'
'CH022';'1564'
'CH022';'1566'
'CH022';'1567'
'CH022';'1568'
'CH022';'1583'
'CH022';'1609'
'CH022';'1611'
'CH022';'1614'
'CH022';'1615'
'CH022';'1616'
'CH022';'1617'
'CH022';'1618'
'CH022';'1619'
'CH022';'1623'
'CH022';'1624'
'CH022';'1625'
'CH022';'1626'
'CH022';'1627'
'CH022';'1628'
'CH022';'1630'
'CH022';'1631'
'CH022';'1632'
'CH022';'1633'
'CH022';'1634'
'CH022';'1635'
'CH022';'1636'
'CH022';'1637'
'CH022';'1638'
'CH022';'1642'
'CH022';'1643'
'CH022';'1644'
'CH022';'1645'
'CH022';'1646'
'CH022';'1647'
'CH022';'1648'
'CH022';'1649'
'CH022';'1651'
'CH022';'1652'
'CH022';'1653'
'CH022';'1654'
'CH022';'1656'
'CH022';'1661'
'CH022';'1663'
'CH022';'1665'
'CH022';'1666'
'CH022';'1667'
'CH022';'1669'
'CH022';'1670'
'CH022';'1673'
'CH022';'1674'
'CH022';'1675'
'CH022';'1676'
'CH022';'1677'
'CH022';'1678'
'CH022';'1679'
'CH022';'1680'
'CH022';'1681'
'CH022';'1684'
'CH022';'1685'
'CH022';'1686'
'CH022';'1687'
'CH022';'1688'
'CH022';'1689'
'CH022';'1690'
'CH022';'1691'
'CH022';'1692'
'CH022';'1694'
'CH022';'1695'
'CH022';'1696'
'CH022';'1697'
'CH022';'1699'
'CH022';'1700'
'CH022';'1701'
'CH022';'1702'
'CH022';'1704'
'CH022';'1705'
'CH022';'1707'
'CH022';'1708'
'CH022';'1709'
'CH022';'1712'
'CH022';'1713'
'CH022';'1714'
'CH022';'1715'
'CH022';'1716'
'CH022';'1717'
'CH022';'1718'
'CH022';'1719'
'CH022';'1720'
'CH022';'1721'
'CH022';'1722'
'CH022';'1723'
'CH022';'1724'
'CH022';'1725'
'CH022';'1726'
'CH022';'1727'
'CH022';'1728'
'CH022';'1730'
'CH022';'1731'
'CH022';'1732'
'CH022';'1733'
'CH022';'1734'
'CH022';'1735'
'CH022';'1736'
'CH022';'1737'
'CH022';'1740'
'CH022';'1741'
'CH022';'1742'
'CH022';'1744'
'CH022';'1745'
'CH022';'1746'
'CH022';'1747'
'CH022';'1748'
'CH022';'1749'
'CH022';'1752'
'CH022';'1753'
'CH022';'1754'
'CH022';'1756'
'CH022';'1757'
'CH022';'1762'
'CH022';'1763'
'CH022';'1772'
'CH022';'1773'
'CH022';'1774'
'CH022';'1775'
'CH022';'1776'
'CH022';'1782'
'CH022';'1783'
'CH022';'1784'
'CH022';'1785'
'CH022';'1786'
'CH022';'1787'
'CH022';'1788'
'CH022';'1789'
'CH022';'1791'
'CH022';'1792'
'CH022';'1793'
'CH022';'1794'
'CH022';'1795'
'CH022';'1796'
'CH022';'3175'
'CH022';'3178'
'CH022';'3182'
'CH022';'3184'
'CH022';'3185'
'CH022';'3186'
'CH022';'3210'
'CH022';'3212'
'CH022';'3214'
'CH022';'3215'
'CH022';'3216'
'CH022';'3280'
'CH022';'3284'
'CH022';'3285'
'CH022';'3286'
'CH033';'4303'
'CH033';'4305'
'CH033';'4310'
'CH033';'4312'
'CH033';'4313'
'CH033';'4314'
'CH033';'4315'
'CH033';'4316'
'CH033';'4317'
'CH033';'4322'
'CH033';'4323'
'CH033';'4324'
'CH033';'4325'
'CH033';'4332'
'CH033';'4333'
'CH033';'4334'
'CH033';'4663'
'CH033';'4665'
'CH033';'4800'
'CH033';'4801'
'CH033';'4802'
'CH033';'4803'
'CH033';'4805'
'CH033';'4807'
'CH033';'4808'
'CH033';'4809'
'CH033';'4812'
'CH033';'4813'
'CH033';'4814'
'CH033';'4852'
'CH033';'4853'
'CH033';'4856'
'CH033';'5000'
'CH033';'5001'
'CH033';'5004'
'CH033';'5017'
'CH033';'5018'
'CH033';'5022'
'CH033';'5023'
'CH033';'5024'
'CH033';'5025'
'CH033';'5026'
'CH033';'5027'
'CH033';'5028'
'CH033';'5032'
'CH033';'5033'
'CH033';'5034'
'CH033';'5035'
'CH033';'5036'
'CH033';'5037'
'CH033';'5040'
'CH033';'5042'
'CH033';'5043'
'CH033';'5044'
'CH033';'5046'
'CH033';'5053'
'CH033';'5054'
'CH033';'5056'
'CH033';'5057'
'CH033';'5058'
'CH033';'5062'
'CH033';'5063'
'CH033';'5064'
'CH033';'5070'
'CH033';'5072'
'CH033';'5073'
'CH033';'5074'
'CH033';'5075'
'CH033';'5076'
'CH033';'5077'
'CH033';'5078'
'CH033';'5079'
'CH033';'5080'
'CH033';'5082'
'CH033';'5083'
'CH033';'5084'
'CH033';'5085'
'CH033';'5102'
'CH033';'5103'
'CH033';'5105'
'CH033';'5106'
'CH033';'5107'
'CH033';'5108'
'CH033';'5112'
'CH033';'5113'
'CH033';'5116'
'CH033';'5200'
'CH033';'5201'
'CH033';'5210'
'CH033';'5212'
'CH033';'5213'
'CH033';'5222'
'CH033';'5223'
'CH033';'5224'
'CH033';'5225'
'CH033';'5232'
'CH033';'5233'
'CH033';'5234'
'CH033';'5235'
'CH033';'5236'
'CH033';'5237'
'CH033';'5242'
'CH033';'5243'
'CH033';'5244'
'CH033';'5245'
'CH033';'5246'
'CH033';'5272'
'CH033';'5273'
'CH033';'5274'
'CH033';'5275'
'CH033';'5276'
'CH033';'5277'
'CH033';'5300'
'CH033';'5301'
'CH033';'5303'
'CH033';'5304'
'CH033';'5305'
'CH033';'5306'
'CH033';'5312'
'CH033';'5313'
'CH033';'5314'
'CH033';'5315'
'CH033';'5316'
'CH033';'5317'
'CH033';'5318'
'CH033';'5322'
'CH033';'5323'
'CH033';'5324'
'CH033';'5325'
'CH033';'5326'
'CH033';'5330'
'CH033';'5332'
'CH033';'5333'
'CH033';'5334'
'CH033';'5400'
'CH033';'5401'
'CH033';'5402'
'CH033';'5404'
'CH033';'5405'
'CH033';'5406'
'CH033';'5408'
'CH033';'5412'
'CH033';'5413'
'CH033';'5415'
'CH033';'5416'
'CH033';'5417'
'CH033';'5420'
'CH033';'5423'
'CH033';'5425'
'CH033';'5426'
'CH033';'5430'
'CH033';'5431'
'CH033';'5432'
'CH033';'5436'
'CH033';'5442'
'CH033';'5443'
'CH033';'5444'
'CH033';'5445'
'CH033';'5452'
'CH033';'5453'
'CH033';'5454'
'CH033';'5462'
'CH033';'5463'
'CH033';'5464'
'CH033';'5465'
'CH033';'5466'
'CH033';'5467'
'CH033';'5502'
'CH033';'5503'
'CH033';'5504'
'CH033';'5505'
'CH033';'5506'
'CH033';'5507'
'CH033';'5512'
'CH033';'5522'
'CH033';'5524'
'CH033';'5525'
'CH033';'5600'
'CH033';'5601'
'CH033';'5603'
'CH033';'5604'
'CH033';'5605'
'CH033';'5606'
'CH033';'5607'
'CH033';'5608'
'CH033';'5610'
'CH033';'5611'
'CH033';'5612'
'CH033';'5613'
'CH033';'5614'
'CH033';'5615'
'CH033';'5616'
'CH033';'5617'
'CH033';'5618'
'CH033';'5619'
'CH033';'5620'
'CH033';'5621'
'CH033';'5622'
'CH033';'5623'
'CH033';'5624'
'CH033';'5625'
'CH033';'5626'
'CH033';'5627'
'CH033';'5628'
'CH033';'5630'
'CH033';'5632'
'CH033';'5634'
'CH033';'5636'
'CH033';'5637'
'CH033';'5642'
'CH033';'5643'
'CH033';'5644'
'CH033';'5645'
'CH033';'5646'
'CH033';'5647'
'CH033';'5702'
'CH033';'5703'
'CH033';'5704'
'CH033';'5705'
'CH033';'5706'
'CH033';'5707'
'CH033';'5708'
'CH033';'5712'
'CH033';'5722'
'CH033';'5723'
'CH033';'5724'
'CH033';'5725'
'CH033';'5726'
'CH033';'5727'
'CH033';'5728'
'CH033';'5732'
'CH033';'5733'
'CH033';'5734'
'CH033';'5736'
'CH033';'5737'
'CH033';'5742'
'CH033';'5745'
'CH033';'6042'
'CH033';'8905'
'CH033';'8916'
'CH033';'8917'
'CH033';'8918'
'CH033';'8919'
'CH033';'8956'
'CH033';'8957'
'CH033';'8962'
'CH033';'8964'
'CH033';'8965'
'CH033';'8966'
'CH033';'8967'
'CH013';'1200'
'CH013';'1201'
'CH013';'1202'
'CH013';'1203'
'CH013';'1204'
'CH013';'1205'
'CH013';'1206'
'CH013';'1207'
'CH013';'1208'
'CH013';'1209'
'CH013';'1211'
'CH013';'1212'
'CH013';'1213'
'CH013';'1214'
'CH013';'1215'
'CH013';'1216'
'CH013';'1217'
'CH013';'1218'
'CH013';'1219'
'CH013';'1220'
'CH013';'1222'
'CH013';'1223'
'CH013';'1224'
'CH013';'1225'
'CH013';'1226'
'CH013';'1227'
'CH013';'1228'
'CH013';'1231'
'CH013';'1232'
'CH013';'1233'
'CH013';'1234'
'CH013';'1236'
'CH013';'1237'
'CH013';'1239'
'CH013';'1240'
'CH013';'1241'
'CH013';'1242'
'CH013';'1243'
'CH013';'1244'
'CH013';'1245'
'CH013';'1246'
'CH013';'1247'
'CH013';'1248'
'CH013';'1251'
'CH013';'1252'
'CH013';'1253'
'CH013';'1254'
'CH013';'1255'
'CH013';'1256'
'CH013';'1257'
'CH013';'1258'
'CH013';'1281'
'CH013';'1283'
'CH013';'1284'
'CH013';'1285'
'CH013';'1286'
'CH013';'1287'
'CH013';'1288'
'CH013';'1289'
'CH013';'1292'
'CH013';'1293'
'CH013';'1294'
'CH013';'1299'
'CH052';'8212'
'CH056';'7445'
'CH024';'2000'
'CH024';'2001'
'CH024';'2002'
'CH024';'2003'
'CH024';'2004'
'CH024';'2006'
'CH024';'2007'
'CH024';'2008'
'CH024';'2009'
'CH024';'2010'
'CH024';'2012'
'CH024';'2013'
'CH024';'2014'
'CH024';'2015'
'CH024';'2016'
'CH024';'2017'
'CH024';'2019'
'CH024';'2022'
'CH024';'2023'
'CH024';'2024'
'CH024';'2025'
'CH024';'2027'
'CH024';'2028'
'CH024';'2034'
'CH024';'2035'
'CH024';'2036'
'CH024';'2037'
'CH024';'2042'
'CH024';'2043'
'CH024';'2046'
'CH024';'2052'
'CH024';'2053'
'CH024';'2054'
'CH024';'2056'
'CH024';'2057'
'CH024';'2058'
'CH024';'2063'
'CH024';'2065'
'CH024';'2067'
'CH024';'2068'
'CH024';'2072'
'CH024';'2073'
'CH024';'2074'
'CH024';'2075'
'CH024';'2087'
'CH024';'2088'
'CH024';'2103'
'CH024';'2105'
'CH024';'2112'
'CH024';'2113'
'CH024';'2114'
'CH024';'2115'
'CH024';'2116'
'CH024';'2117'
'CH024';'2123'
'CH024';'2124'
'CH024';'2126'
'CH024';'2127'
'CH024';'2149'
'CH024';'2206'
'CH024';'2207'
'CH024';'2208'
'CH024';'2300'
'CH024';'2301'
'CH024';'2302'
'CH024';'2303'
'CH024';'2304'
'CH024';'2306'
'CH024';'2314'
'CH024';'2316'
'CH024';'2318'
'CH024';'2322'
'CH024';'2325'
'CH024';'2400'
'CH024';'2405'
'CH024';'2406'
'CH024';'2414'
'CH024';'2416'
'CH024';'2523'
'CH024';'2525'
'CH064';'6053'
'CH064';'6055'
'CH064';'6056'
'CH064';'6060'
'CH064';'6061'
'CH064';'6062'
'CH064';'6063'
'CH064';'6064'
'CH064';'6066'
'CH064';'6067'
'CH064';'6068'
'CH064';'6072'
'CH064';'6073'
'CH064';'6074'
'CH064';'6078'
'CH064';'6388'
'CH064';'6390'
'CH064';'6391'
'CH031';'4000'
'CH031';'4001'
'CH031';'4002'
'CH031';'4003'
'CH031';'4004'
'CH031';'4005'
'CH031';'4007'
'CH031';'4008'
'CH031';'4009'
'CH031';'4010'
'CH031';'4011'
'CH031';'4012'
'CH031';'4013'
'CH031';'4015'
'CH031';'4016'
'CH031';'4017'
'CH031';'4018'
'CH031';'4019'
'CH031';'4020'
'CH031';'4024'
'CH031';'4025'
'CH031';'4030'
'CH031';'4031'
'CH031';'4032'
'CH031';'4033'
'CH031';'4034'
'CH031';'4035'
'CH031';'4039'
'CH031';'4041'
'CH031';'4051'
'CH031';'4052'
'CH031';'4053'
'CH031';'4054'
'CH031';'4055'
'CH031';'4056'
'CH031';'4057'
'CH031';'4058'
'CH031';'4059'
'CH031';'4065'
'CH031';'4070'
'CH031';'4075'
'CH031';'4078'
'CH031';'4080'
'CH031';'4081'
'CH031';'4082'
'CH031';'4083'
'CH031';'4084'
'CH031';'4085'
'CH031';'4086'
'CH031';'4087'
'CH031';'4088'
'CH031';'4089'
'CH031';'4091'
'CH031';'4092'
'CH031';'4093'
'CH031';'4094'
'CH031';'4095'
'CH031';'4096'
'CH031';'4125'
'CH031';'4126'
'CH051';'8750'
'CH051';'8752'
'CH051';'8753'
'CH051';'8754'
'CH051';'8755'
'CH051';'8756'
'CH051';'8757'
'CH051';'8758'
'CH051';'8759'
'CH051';'8762'
'CH051';'8765'
'CH051';'8766'
'CH051';'8767'
'CH051';'8772'
'CH051';'8773'
'CH051';'8774'
'CH051';'8775'
'CH051';'8777'
'CH051';'8782'
'CH051';'8783'
'CH051';'8784'
'CH051';'8865'
'CH051';'8867'
'CH051';'8868'
'CH051';'8874'
'CH055';'7310'
'CH055';'7312'
'CH055';'7313'
'CH055';'7314'
'CH055';'7315'
'CH055';'7317'
'CH055';'7320'
'CH055';'7323'
'CH055';'7324'
'CH055';'7325'
'CH055';'7326'
'CH055';'8638'
'CH055';'8640'
'CH055';'8645'
'CH055';'8646'
'CH055';'8715'
'CH055';'8716'
'CH055';'8717'
'CH055';'8718'
'CH055';'8722'
'CH055';'8723'
'CH055';'8725'
'CH055';'8726'
'CH055';'8727'
'CH055';'8730'
'CH055';'8732'
'CH055';'8733'
'CH055';'8734'
'CH055';'8735'
'CH055';'8737'
'CH055';'8738'
'CH055';'8739'
'CH055';'8740'
'CH055';'8866'
'CH055';'8872'
'CH055';'8873'
'CH055';'8877'
'CH055';'8878'
'CH055';'8879'
'CH055';'8880'
'CH055';'8881'
'CH055';'8882'
'CH055';'8883'
'CH055';'8884'
'CH055';'8885'
'CH055';'8886'
'CH055';'8887'
'CH055';'8888'
'CH055';'8889'
'CH055';'8890'
'CH055';'8892'
'CH055';'8893'
'CH055';'8894'
'CH055';'8895'
'CH055';'8896'
'CH055';'8897'
'CH055';'8898'
'CH055';'9000'
'CH055';'9001'
'CH055';'9004'
'CH055';'9006'
'CH055';'9007'
'CH055';'9008'
'CH055';'9009'
'CH055';'9010'
'CH055';'9011'
'CH055';'9012'
'CH055';'9013'
'CH055';'9014'
'CH055';'9015'
'CH055';'9016'
'CH055';'9020'
'CH055';'9022'
'CH055';'9023'
'CH055';'9024'
'CH055';'9025'
'CH055';'9026'
'CH055';'9027'
'CH055';'9028'
'CH055';'9029'
'CH055';'9030'
'CH055';'9032'
'CH055';'9033'
'CH055';'9034'
'CH055';'9036'
'CH055';'9113'
'CH055';'9114'
'CH055';'9115'
'CH055';'9116'
'CH055';'9122'
'CH055';'9123'
'CH055';'9125'
'CH055';'9126'
'CH055';'9127'
'CH055';'9200'
'CH055';'9201'
'CH055';'9203'
'CH055';'9204'
'CH055';'9205'
'CH055';'9212'
'CH055';'9230'
'CH055';'9231'
'CH055';'9240'
'CH055';'9242'
'CH055';'9243'
'CH055';'9244'
'CH055';'9245'
'CH055';'9246'
'CH055';'9247'
'CH055';'9248'
'CH055';'9249'
'CH055';'9300'
'CH055';'9301'
'CH055';'9304'
'CH055';'9305'
'CH055';'9308'
'CH055';'9312'
'CH055';'9313'
'CH055';'9323'
'CH055';'9327'
'CH055';'9400'
'CH055';'9401'
'CH055';'9402'
'CH055';'9403'
'CH055';'9404'
'CH055';'9422'
'CH055';'9423'
'CH055';'9424'
'CH055';'9425'
'CH055';'9430'
'CH055';'9434'
'CH055';'9435'
'CH055';'9436'
'CH055';'9437'
'CH055';'9442'
'CH055';'9443'
'CH055';'9444'
'CH055';'9445'
'CH055';'9450'
'CH055';'9451'
'CH055';'9452'
'CH055';'9453'
'CH055';'9462'
'CH055';'9463'
'CH055';'9464'
'CH055';'9465'
'CH055';'9466'
'CH055';'9467'
'CH055';'9468'
'CH055';'9469'
'CH055';'9470'
'CH055';'9471'
'CH055';'9472'
'CH055';'9473'
'CH055';'9475'
'CH055';'9476'
'CH055';'9477'
'CH055';'9478'
'CH055';'9479'
'CH055';'9500'
'CH055';'9512'
'CH055';'9523'
'CH055';'9524'
'CH055';'9525'
'CH055';'9526'
'CH055';'9527'
'CH055';'9532'
'CH055';'9533'
'CH055';'9534'
'CH055';'9536'
'CH055';'9552'
'CH055';'9601'
'CH055';'9602'
'CH055';'9604'
'CH055';'9606'
'CH055';'9607'
'CH055';'9608'
'CH055';'9612'
'CH055';'9613'
'CH055';'9614'
'CH055';'9615'
'CH055';'9620'
'CH055';'9621'
'CH055';'9622'
'CH055';'9630'
'CH055';'9631'
'CH055';'9633'
'CH055';'9642'
'CH055';'9643'
'CH055';'9650'
'CH055';'9651'
'CH055';'9652'
'CH055';'9655'
'CH055';'9656'
'CH055';'9657'
'CH055';'9658'
'CH032';'2814'
'CH032';'4023'
'CH032';'4040'
'CH032';'4042'
'CH032';'4101'
'CH032';'4102'
'CH032';'4103'
'CH032';'4104'
'CH032';'4105'
'CH032';'4106'
'CH032';'4107'
'CH032';'4117'
'CH032';'4123'
'CH032';'4124'
'CH032';'4127'
'CH032';'4132'
'CH032';'4133'
'CH032';'4142'
'CH032';'4144'
'CH032';'4147'
'CH032';'4148'
'CH032';'4153'
'CH032';'4202'
'CH032';'4203'
'CH032';'4207'
'CH032';'4222'
'CH032';'4223'
'CH032';'4224'
'CH032';'4225'
'CH032';'4242'
'CH032';'4243'
'CH032';'4244'
'CH032';'4246'
'CH032';'4253'
'CH032';'4254'
'CH032';'4302'
'CH032';'4304'
'CH032';'4402'
'CH032';'4410'
'CH032';'4411'
'CH032';'4414'
'CH032';'4415'
'CH032';'4416'
'CH032';'4417'
'CH032';'4418'
'CH032';'4419'
'CH032';'4422'
'CH032';'4423'
'CH032';'4424'
'CH032';'4425'
'CH032';'4426'
'CH032';'4431'
'CH032';'4432'
'CH032';'4433'
'CH032';'4434'
'CH032';'4435'
'CH032';'4436'
'CH032';'4437'
'CH032';'4438'
'CH032';'4441'
'CH032';'4442'
'CH032';'4443'
'CH032';'4444'
'CH032';'4445'
'CH032';'4446'
'CH032';'4447'
'CH032';'4448'
'CH032';'4450'
'CH032';'4451'
'CH032';'4452'
'CH032';'4453'
'CH032';'4455'
'CH032';'4456'
'CH032';'4457'
'CH032';'4458'
'CH032';'4460'
'CH032';'4461'
'CH032';'4462'
'CH032';'4463'
'CH032';'4464'
'CH032';'4465'
'CH032';'4466'
'CH032';'4467'
'CH032';'4469'
'CH032';'4492'
'CH032';'4493'
'CH032';'4494'
'CH032';'4495'
'CH032';'4496'
'CH032';'4497'
'CH053';'9035'
'CH053';'9037'
'CH053';'9038'
'CH053';'9042'
'CH053';'9043'
'CH053';'9044'
'CH053';'9052'
'CH053';'9053'
'CH053';'9055'
'CH053';'9056'
'CH053';'9062'
'CH053';'9063'
'CH053';'9064'
'CH053';'9100'
'CH053';'9101'
'CH053';'9102'
'CH053';'9103'
'CH053';'9104'
'CH053';'9105'
'CH053';'9107'
'CH053';'9112'
'CH053';'9405'
'CH053';'9410'
'CH053';'9411'
'CH053';'9413'
'CH053';'9414'
'CH053';'9426'
'CH053';'9427'
'CH053';'9428'
'CH021';'1657'
'CH021';'1738'
'CH021';'1797'
'CH021';'2333'
'CH021';'2500'
'CH021';'2501'
'CH021';'2502'
'CH021';'2503'
'CH021';'2504'
'CH021';'2505'
'CH021';'2510'
'CH021';'2512'
'CH021';'2513'
'CH021';'2514'
'CH021';'2515'
'CH021';'2516'
'CH021';'2517'
'CH021';'2518'
'CH021';'2520'
'CH021';'2532'
'CH021';'2533'
'CH021';'2534'
'CH021';'2535'
'CH021';'2536'
'CH021';'2537'
'CH021';'2538'
'CH021';'2542'
'CH021';'2543'
'CH021';'2552'
'CH021';'2553'
'CH021';'2554'
'CH021';'2555'
'CH021';'2556'
'CH021';'2557'
'CH021';'2558'
'CH021';'2560'
'CH021';'2562'
'CH021';'2563'
'CH021';'2564'
'CH021';'2565'
'CH021';'2572'
'CH021';'2575'
'CH021';'2576'
'CH021';'2577'
'CH021';'2603'
'CH021';'2604'
'CH021';'2605'
'CH021';'2606'
'CH021';'2607'
'CH021';'2608'
'CH021';'2610'
'CH021';'2612'
'CH021';'2613'
'CH021';'2615'
'CH021';'2616'
'CH021';'2710'
'CH021';'2712'
'CH021';'2713'
'CH021';'2715'
'CH021';'2716'
'CH021';'2717'
'CH021';'2720'
'CH021';'2722'
'CH021';'2723'
'CH021';'2732'
'CH021';'2733'
'CH021';'2735'
'CH021';'2736'
'CH021';'2738'
'CH021';'2740'
'CH021';'2742'
'CH021';'2743'
'CH021';'2744'
'CH021';'2745'
'CH021';'2746'
'CH021';'2747'
'CH021';'2748'
'CH021';'2762'
'CH021';'3000'
'CH021';'3001'
'CH021';'3002'
'CH021';'3003'
'CH021';'3004'
'CH021';'3005'
'CH021';'3006'
'CH021';'3007'
'CH021';'3008'
'CH021';'3010'
'CH021';'3011'
'CH021';'3012'
'CH021';'3013'
'CH021';'3014'
'CH021';'3015'
'CH021';'3017'
'CH021';'3018'
'CH021';'3019'
'CH021';'3020'
'CH021';'3024'
'CH021';'3027'
'CH021';'3029'
'CH021';'3030'
'CH021';'3032'
'CH021';'3033'
'CH021';'3034'
'CH021';'3035'
'CH021';'3036'
'CH021';'3037'
'CH021';'3038'
'CH021';'3039'
'CH021';'3040'
'CH021';'3041'
'CH021';'3042'
'CH021';'3043'
'CH021';'3044'
'CH021';'3045'
'CH021';'3046'
'CH021';'3047'
'CH021';'3048'
'CH021';'3049'
'CH021';'3050'
'CH021';'3052'
'CH021';'3053'
'CH021';'3054'
'CH021';'3063'
'CH021';'3065'
'CH021';'3066'
'CH021';'3067'
'CH021';'3068'
'CH021';'3070'
'CH021';'3071'
'CH021';'3072'
'CH021';'3073'
'CH021';'3074'
'CH021';'3075'
'CH021';'3076'
'CH021';'3077'
'CH021';'3078'
'CH021';'3082'
'CH021';'3083'
'CH021';'3084'
'CH021';'3085'
'CH021';'3086'
'CH021';'3087'
'CH021';'3088'
'CH021';'3089'
'CH021';'3095'
'CH021';'3096'
'CH021';'3097'
'CH021';'3098'
'CH021';'3099'
'CH021';'3110'
'CH021';'3111'
'CH021';'3112'
'CH021';'3113'
'CH021';'3114'
'CH021';'3115'
'CH021';'3116'
'CH021';'3122'
'CH021';'3123'
'CH021';'3124'
'CH021';'3125'
'CH021';'3126'
'CH021';'3127'
'CH021';'3128'
'CH021';'3132'
'CH021';'3144'
'CH021';'3145'
'CH021';'3147'
'CH021';'3148'
'CH021';'3150'
'CH021';'3152'
'CH021';'3153'
'CH021';'3154'
'CH021';'3155'
'CH021';'3156'
'CH021';'3157'
'CH021';'3158'
'CH021';'3159'
'CH021';'3172'
'CH021';'3173'
'CH021';'3174'
'CH021';'3176'
'CH021';'3177'
'CH021';'3179'
'CH021';'3183'
'CH021';'3202'
'CH021';'3203'
'CH021';'3204'
'CH021';'3205'
'CH021';'3206'
'CH021';'3207'
'CH021';'3208'
'CH021';'3213'
'CH021';'3225'
'CH021';'3226'
'CH021';'3232'
'CH021';'3233'
'CH021';'3234'
'CH021';'3235'
'CH021';'3236'
'CH021';'3237'
'CH021';'3238'
'CH021';'3250'
'CH021';'3251'
'CH021';'3252'
'CH021';'3255'
'CH021';'3256'
'CH021';'3257'
'CH021';'3262'
'CH021';'3263'
'CH021';'3264'
'CH021';'3266'
'CH021';'3267'
'CH021';'3268'
'CH021';'3270'
'CH021';'3271'
'CH021';'3272'
'CH021';'3273'
'CH021';'3274'
'CH021';'3282'
'CH021';'3283'
'CH021';'3292'
'CH021';'3293'
'CH021';'3294'
'CH021';'3295'
'CH021';'3296'
'CH021';'3297'
'CH021';'3298'
'CH021';'3302'
'CH021';'3303'
'CH021';'3305'
'CH021';'3306'
'CH021';'3308'
'CH021';'3309'
'CH021';'3312'
'CH021';'3313'
'CH021';'3314'
'CH021';'3315'
'CH021';'3317'
'CH021';'3321'
'CH021';'3322'
'CH021';'3323'
'CH021';'3324'
'CH021';'3325'
'CH021';'3326'
'CH021';'3360'
'CH021';'3362'
'CH021';'3363'
'CH021';'3365'
'CH021';'3366'
'CH021';'3367'
'CH021';'3368'
'CH021';'3372'
'CH021';'3373'
'CH021';'3374'
'CH021';'3375'
'CH021';'3376'
'CH021';'3377'
'CH021';'3380'
'CH021';'3400'
'CH021';'3401'
'CH021';'3402'
'CH021';'3412'
'CH021';'3413'
'CH021';'3414'
'CH021';'3415'
'CH021';'3416'
'CH021';'3417'
'CH021';'3418'
'CH021';'3419'
'CH021';'3421'
'CH021';'3422'
'CH021';'3423'
'CH021';'3424'
'CH021';'3425'
'CH021';'3426'
'CH021';'3427'
'CH021';'3428'
'CH021';'3429'
'CH021';'3432'
'CH021';'3433'
'CH021';'3434'
'CH021';'3435'
'CH021';'3436'
'CH021';'3437'
'CH021';'3438'
'CH021';'3439'
'CH021';'3452'
'CH021';'3453'
'CH021';'3454'
'CH021';'3455'
'CH021';'3456'
'CH021';'3457'
'CH021';'3462'
'CH021';'3463'
'CH021';'3464'
'CH021';'3465'
'CH021';'3472'
'CH021';'3473'
'CH021';'3474'
'CH021';'3475'
'CH021';'3476'
'CH021';'3503'
'CH021';'3504'
'CH021';'3506'
'CH021';'3507'
'CH021';'3508'
'CH021';'3510'
'CH021';'3512'
'CH021';'3513'
'CH021';'3531'
'CH021';'3532'
'CH021';'3533'
'CH021';'3534'
'CH021';'3535'
'CH021';'3536'
'CH021';'3537'
'CH021';'3538'
'CH021';'3543'
'CH021';'3550'
'CH021';'3551'
'CH021';'3552'
'CH021';'3553'
'CH021';'3555'
'CH021';'3556'
'CH021';'3557'
'CH021';'3600'
'CH021';'3601'
'CH021';'3602'
'CH021';'3603'
'CH021';'3604'
'CH021';'3605'
'CH021';'3607'
'CH021';'3608'
'CH021';'3609'
'CH021';'3612'
'CH021';'3613'
'CH021';'3614'
'CH021';'3615'
'CH021';'3616'
'CH021';'3617'
'CH021';'3618'
'CH021';'3619'
'CH021';'3622'
'CH021';'3623'
'CH021';'3624'
'CH021';'3625'
'CH021';'3626'
'CH021';'3627'
'CH021';'3628'
'CH021';'3629'
'CH021';'3631'
'CH021';'3632'
'CH021';'3633'
'CH021';'3634'
'CH021';'3635'
'CH021';'3636'
'CH021';'3638'
'CH021';'3645'
'CH021';'3646'
'CH021';'3647'
'CH021';'3652'
'CH021';'3653'
'CH021';'3654'
'CH021';'3655'
'CH021';'3656'
'CH021';'3657'
'CH021';'3658'
'CH021';'3661'
'CH021';'3662'
'CH021';'3663'
'CH021';'3664'
'CH021';'3665'
'CH021';'3671'
'CH021';'3672'
'CH021';'3673'
'CH021';'3674'
'CH021';'3700'
'CH021';'3702'
'CH021';'3703'
'CH021';'3704'
'CH021';'3705'
'CH021';'3706'
'CH021';'3707'
'CH021';'3711'
'CH021';'3713'
'CH021';'3714'
'CH021';'3715'
'CH021';'3716'
'CH021';'3717'
'CH021';'3718'
'CH021';'3722'
'CH021';'3723'
'CH021';'3724'
'CH021';'3725'
'CH021';'3752'
'CH021';'3753'
'CH021';'3754'
'CH021';'3755'
'CH021';'3756'
'CH021';'3757'
'CH021';'3758'
'CH021';'3762'
'CH021';'3763'
'CH021';'3764'
'CH021';'3765'
'CH021';'3766'
'CH021';'3770'
'CH021';'3771'
'CH021';'3772'
'CH021';'3773'
'CH021';'3775'
'CH021';'3776'
'CH021';'3777'
'CH021';'3778'
'CH021';'3780'
'CH021';'3781'
'CH021';'3782'
'CH021';'3783'
'CH021';'3784'
'CH021';'3785'
'CH021';'3792'
'CH021';'3800'
'CH021';'3803'
'CH021';'3804'
'CH021';'3805'
'CH021';'3806'
'CH021';'3807'
'CH021';'3812'
'CH021';'3813'
'CH021';'3814'
'CH021';'3815'
'CH021';'3816'
'CH021';'3818'
'CH021';'3822'
'CH021';'3823'
'CH021';'3824'
'CH021';'3825'
'CH021';'3826'
'CH021';'3852'
'CH021';'3853'
'CH021';'3854'
'CH021';'3855'
'CH021';'3856'
'CH021';'3857'
'CH021';'3858'
'CH021';'3860'
'CH021';'3862'
'CH021';'3863'
'CH021';'3864'
'CH021';'4536'
'CH021';'4537'
'CH021';'4538'
'CH021';'4539'
'CH021';'4564'
'CH021';'4704'
'CH021';'4900'
'CH021';'4901'
'CH021';'4902'
'CH021';'4911'
'CH021';'4912'
'CH021';'4913'
'CH021';'4914'
'CH021';'4916'
'CH021';'4917'
'CH021';'4919'
'CH021';'4922'
'CH021';'4923'
'CH021';'4924'
'CH021';'4932'
'CH021';'4933'
'CH021';'4934'
'CH021';'4935'
'CH021';'4936'
'CH021';'4937'
'CH021';'4938'
'CH021';'4942'
'CH021';'4943'
'CH021';'4944'
'CH021';'4950'
'CH021';'4952'
'CH021';'4953'
'CH021';'4954'
'CH021';'4955'
'CH021';'6083'
'CH021';'6084'
'CH021';'6085'
'CH021';'6086'
'CH021';'6197'
'CH023';'2540'
'CH023';'2544'
'CH023';'2545'
'CH023';'3253'
'CH023';'3254'
'CH023';'3307'
'CH023';'4108'
'CH023';'4112'
'CH023';'4114'
'CH023';'4115'
'CH023';'4116'
'CH023';'4118'
'CH023';'4143'
'CH023';'4145'
'CH023';'4146'
'CH023';'4204'
'CH023';'4206'
'CH023';'4208'
'CH023';'4226'
'CH023';'4227'
'CH023';'4228'
'CH023';'4229'
'CH023';'4232'
'CH023';'4233'
'CH023';'4234'
'CH023';'4245'
'CH023';'4247'
'CH023';'4252'
'CH023';'4412'
'CH023';'4413'
'CH023';'4421'
'CH023';'4468'
'CH023';'4500'
'CH023';'4501'
'CH023';'4502'
'CH023';'4503'
'CH023';'4509'
'CH023';'4512'
'CH023';'4513'
'CH023';'4514'
'CH023';'4515'
'CH023';'4522'
'CH023';'4523'
'CH023';'4524'
'CH023';'4525'
'CH023';'4528'
'CH023';'4532'
'CH023';'4533'
'CH023';'4534'
'CH023';'4535'
'CH023';'4542'
'CH023';'4543'
'CH023';'4551'
'CH023';'4552'
'CH023';'4553'
'CH023';'4554'
'CH023';'4556'
'CH023';'4557'
'CH023';'4558'
'CH023';'4562'
'CH023';'4563'
'CH023';'4565'
'CH023';'4566'
'CH023';'4571'
'CH023';'4573'
'CH023';'4574'
'CH023';'4576'
'CH023';'4577'
'CH023';'4578'
'CH023';'4579'
'CH023';'4581'
'CH023';'4582'
'CH023';'4583'
'CH023';'4584'
'CH023';'4585'
'CH023';'4586'
'CH023';'4587'
'CH023';'4588'
'CH023';'4600'
'CH023';'4601'
'CH023';'4603'
'CH023';'4609'
'CH023';'4611'
'CH023';'4612'
'CH023';'4613'
'CH023';'4614'
'CH023';'4615'
'CH023';'4616'
'CH023';'4617'
'CH023';'4618'
'CH023';'4620'
'CH023';'4621'
'CH023';'4622'
'CH023';'4623'
'CH023';'4624'
'CH023';'4625'
'CH023';'4626'
'CH023';'4628'
'CH023';'4629'
'CH023';'4630'
'CH023';'4632'
'CH023';'4633'
'CH023';'4634'
'CH023';'4640'
'CH023';'4652'
'CH023';'4653'
'CH023';'4654'
'CH023';'4655'
'CH023';'4656'
'CH023';'4657'
'CH023';'4658'
'CH023';'4702'
'CH023';'4703'
'CH023';'4710'
'CH023';'4712'
'CH023';'4713'
'CH023';'4714'
'CH023';'4715'
'CH023';'4716'
'CH023';'4717'
'CH023';'4718'
'CH023';'4719'
'CH023';'5010'
'CH023';'5012'
'CH023';'5013'
'CH023';'5014'
'CH023';'5015'
'CH023';'5746'
'CH012';'1868'
'CH012';'1869'
'CH012';'1870'
'CH012';'1871'
'CH012';'1872'
'CH012';'1873'
'CH012';'1874'
'CH012';'1875'
'CH012';'1890'
'CH012';'1891'
'CH012';'1893'
'CH012';'1895'
'CH012';'1896'
'CH012';'1897'
'CH012';'1898'
'CH012';'1899'
'CH012';'1902'
'CH012';'1903'
'CH012';'1904'
'CH012';'1905'
'CH012';'1906'
'CH012';'1907'
'CH012';'1908'
'CH012';'1911'
'CH012';'1912'
'CH012';'1913'
'CH012';'1914'
'CH012';'1918'
'CH012';'1919'
'CH012';'1920'
'CH012';'1921'
'CH012';'1922'
'CH012';'1923'
'CH012';'1925'
'CH012';'1926'
'CH012';'1927'
'CH012';'1928'
'CH012';'1929'
'CH012';'1932'
'CH012';'1933'
'CH012';'1934'
'CH012';'1936'
'CH012';'1937'
'CH012';'1938'
'CH012';'1941'
'CH012';'1942'
'CH012';'1943'
'CH012';'1944'
'CH012';'1945'
'CH012';'1946'
'CH012';'1947'
'CH012';'1948'
'CH012';'1950'
'CH012';'1951'
'CH012';'1953'
'CH012';'1955'
'CH012';'1957'
'CH012';'1958'
'CH012';'1961'
'CH012';'1962'
'CH012';'1963'
'CH012';'1964'
'CH012';'1965'
'CH012';'1966'
'CH012';'1967'
'CH012';'1968'
'CH012';'1969'
'CH012';'1971'
'CH012';'1972'
'CH012';'1973'
'CH012';'1974'
'CH012';'1975'
'CH012';'1976'
'CH012';'1977'
'CH012';'1978'
'CH012';'1981'
'CH012';'1982'
'CH012';'1983'
'CH012';'1984'
'CH012';'1985'
'CH012';'1986'
'CH012';'1987'
'CH012';'1988'
'CH012';'1991'
'CH012';'1992'
'CH012';'1993'
'CH012';'1994'
'CH012';'1996'
'CH012';'1997'
'CH012';'3801'
'CH012';'3900'
'CH012';'3901'
'CH012';'3902'
'CH012';'3903'
'CH012';'3904'
'CH012';'3905'
'CH012';'3906'
'CH012';'3907'
'CH012';'3908'
'CH012';'3910'
'CH012';'3911'
'CH012';'3912'
'CH012';'3913'
'CH012';'3914'
'CH012';'3916'
'CH012';'3917'
'CH012';'3918'
'CH012';'3919'
'CH012';'3920'
'CH012';'3922'
'CH012';'3923'
'CH012';'3924'
'CH012';'3925'
'CH012';'3926'
'CH012';'3927'
'CH012';'3928'
'CH012';'3929'
'CH012';'3930'
'CH012';'3931'
'CH012';'3932'
'CH012';'3933'
'CH012';'3934'
'CH012';'3935'
'CH012';'3937'
'CH012';'3938'
'CH012';'3939'
'CH012';'3940'
'CH012';'3942'
'CH012';'3943'
'CH012';'3944'
'CH012';'3945'
'CH012';'3946'
'CH012';'3947'
'CH012';'3948'
'CH012';'3949'
'CH012';'3951'
'CH012';'3952'
'CH012';'3953'
'CH012';'3954'
'CH012';'3955'
'CH012';'3956'
'CH012';'3957'
'CH012';'3960'
'CH012';'3961'
'CH012';'3963'
'CH012';'3965'
'CH012';'3966'
'CH012';'3967'
'CH012';'3968'
'CH012';'3970'
'CH012';'3971'
'CH012';'3972'
'CH012';'3973'
'CH012';'3974'
'CH012';'3975'
'CH012';'3976'
'CH012';'3977'
'CH012';'3978'
'CH012';'3979'
'CH012';'3982'
'CH012';'3983'
'CH012';'3984'
'CH012';'3985'
'CH012';'3986'
'CH012';'3987'
'CH012';'3988'
'CH012';'3989'
'CH012';'3991'
'CH012';'3992'
'CH012';'3993'
'CH012';'3994'
'CH012';'3995'
'CH012';'3996'
'CH012';'3997'
'CH012';'3998'
'CH012';'3999'
'CH063';'6356'
'CH063';'6402'
'CH063';'6403'
'CH063';'6405'
'CH063';'6410'
'CH063';'6414'
'CH063';'6415'
'CH063';'6416'
'CH063';'6417'
'CH063';'6418'
'CH063';'6422'
'CH063';'6423'
'CH063';'6424'
'CH063';'6430'
'CH063';'6431'
'CH063';'6432'
'CH063';'6433'
'CH063';'6434'
'CH063';'6436'
'CH063';'6438'
'CH063';'6440'
'CH063';'6442'
'CH063';'6443'
'CH063';'8806'
'CH063';'8807'
'CH063';'8808'
'CH063';'8832'
'CH063';'8834'
'CH063';'8835'
'CH063';'8836'
'CH063';'8840'
'CH063';'8841'
'CH063';'8842'
'CH063';'8843'
'CH063';'8844'
'CH063';'8845'
'CH063';'8846'
'CH063';'8847'
'CH063';'8849'
'CH063';'8852'
'CH063';'8853'
'CH063';'8854'
'CH063';'8855'
'CH063';'8856'
'CH063';'8857'
'CH063';'8858'
'CH063';'8862'
'CH063';'8863'
'CH063';'8864'
'CH054';'9050'
'CH054';'9054'
'CH054';'9057'
'CH054';'9058'
'CH054';'9108'
'CH025';'2336'
'CH025';'2338'
'CH025';'2340'
'CH025';'2345'
'CH025';'2350'
'CH025';'2353'
'CH025';'2354'
'CH025';'2360'
'CH025';'2362'
'CH025';'2363'
'CH025';'2364'
'CH025';'2714'
'CH025';'2718'
'CH025';'2800'
'CH025';'2802'
'CH025';'2803'
'CH025';'2805'
'CH025';'2806'
'CH025';'2807'
'CH025';'2812'
'CH025';'2813'
'CH025';'2822'
'CH025';'2823'
'CH025';'2824'
'CH025';'2825'
'CH025';'2826'
'CH025';'2827'
'CH025';'2828'
'CH025';'2829'
'CH025';'2830'
'CH025';'2832'
'CH025';'2842'
'CH025';'2843'
'CH025';'2852'
'CH025';'2853'
'CH025';'2854'
'CH025';'2855'
'CH025';'2856'
'CH025';'2857'
'CH025';'2863'
'CH025';'2864'
'CH025';'2873'
'CH025';'2882'
'CH025';'2883'
'CH025';'2884'
'CH025';'2885'
'CH025';'2886'
'CH025';'2887'
'CH025';'2888'
'CH025';'2889'
'CH025';'2900'
'CH025';'2902'
'CH025';'2903'
'CH025';'2904'
'CH025';'2905'
'CH025';'2906'
'CH025';'2907'
'CH025';'2908'
'CH025';'2912'
'CH025';'2914'
'CH025';'2915'
'CH025';'2916'
'CH025';'2922'
'CH025';'2923'
'CH025';'2924'
'CH025';'2925'
'CH025';'2926'
'CH025';'2932'
'CH025';'2933'
'CH025';'2935'
'CH025';'2942'
'CH025';'2943'
'CH025';'2944'
'CH025';'2946'
'CH025';'2947'
'CH025';'2950'
'CH025';'2952'
'CH025';'2953'
'CH025';'2954'
